%!PS-Adobe-3.0 EPSF-3.0
%%Creator: cairo 1.16.0 (https://cairographics.org)
%%CreationDate: Tue Mar 30 19:13:48 2021
%%Pages: 1
%%DocumentData: Clean7Bit
%%LanguageLevel: 2
%%BoundingBox: 17 9 9338 2755
%%EndComments
%%BeginProlog
50 dict begin
/q { gsave } bind def
/Q { grestore } bind def
/cm { 6 array astore concat } bind def
/w { setlinewidth } bind def
/J { setlinecap } bind def
/j { setlinejoin } bind def
/M { setmiterlimit } bind def
/d { setdash } bind def
/m { moveto } bind def
/l { lineto } bind def
/c { curveto } bind def
/h { closepath } bind def
/re { exch dup neg 3 1 roll 5 3 roll moveto 0 rlineto
      0 exch rlineto 0 rlineto closepath } bind def
/S { stroke } bind def
/f { fill } bind def
/f* { eofill } bind def
/n { newpath } bind def
/W { clip } bind def
/W* { eoclip } bind def
/BT { } bind def
/ET { } bind def
/BDC { mark 3 1 roll /BDC pdfmark } bind def
/EMC { mark /EMC pdfmark } bind def
/cairo_store_point { /cairo_point_y exch def /cairo_point_x exch def } def
/Tj { show currentpoint cairo_store_point } bind def
/TJ {
  {
    dup
    type /stringtype eq
    { show } { -0.001 mul 0 cairo_font_matrix dtransform rmoveto } ifelse
  } forall
  currentpoint cairo_store_point
} bind def
/cairo_selectfont { cairo_font_matrix aload pop pop pop 0 0 6 array astore
    cairo_font exch selectfont cairo_point_x cairo_point_y moveto } bind def
/Tf { pop /cairo_font exch def /cairo_font_matrix where
      { pop cairo_selectfont } if } bind def
/Td { matrix translate cairo_font_matrix matrix concatmatrix dup
      /cairo_font_matrix exch def dup 4 get exch 5 get cairo_store_point
      /cairo_font where { pop cairo_selectfont } if } bind def
/Tm { 2 copy 8 2 roll 6 array astore /cairo_font_matrix exch def
      cairo_store_point /cairo_font where { pop cairo_selectfont } if } bind def
/g { setgray } bind def
/rg { setrgbcolor } bind def
/d1 { setcachedevice } bind def
/cairo_data_source {
  CairoDataIndex CairoData length lt
    { CairoData CairoDataIndex get /CairoDataIndex CairoDataIndex 1 add def }
    { () } ifelse
} def
/cairo_flush_ascii85_file { cairo_ascii85_file status { cairo_ascii85_file flushfile } if } def
/cairo_image { image cairo_flush_ascii85_file } def
/cairo_imagemask { imagemask cairo_flush_ascii85_file } def
%%EndProlog
%%BeginSetup
%%EndSetup
%%Page: 1 1
%%BeginPageSetup
%%PageBoundingBox: 17 9 9338 2755
%%EndPageSetup
q 17 9 9321 2746 rectclip
1 0 0 -1 0 2764 cm q
0 0.290196 0.180392 rg
889.734 2665.516 m 889.734 2576.641 l 885.656 2576.641 l 882.309 2576.309
 880.211 2576 875.859 2575.141 c 860.91 2572.746 859.5 2572.535 844.359 
2569.141 c 827.094 2565.797 807.629 2561.305 794.109 2557.891 c 779.785 
2554.441 770.426 2551.656 762.609 2549.641 c 753.496 2546.996 743.578 2544.371
 734.109 2541.391 c 721.664 2536.945 719.023 2536.145 715.008 2534.641 c
 709.668 2532.91 708.93 2532.602 704.109 2530.891 c 694.715 2527.273 693.262
 2526.824 683.109 2523.391 c 679.977 2522.16 678.105 2521.664 672.609 2519.641
 c 663.719 2516.078 663.152 2515.824 654.609 2512.141 c 640.957 2506.293
 639.918 2505.758 627.609 2500.141 c 610.125 2492.574 609.605 2492.332 586.125
 2480.469 c 585.43 2479.883 581.57 2477.793 577.547 2475.824 c 571.488 2472.734
 565.164 2468.891 560.109 2466.391 c 554.078 2463.176 547.547 2459.781 542.109
 2456.641 c 530.273 2449.961 529.238 2449.09 518.109 2442.391 c 503.633 
2432.914 502.441 2432.41 484.359 2420.641 c 472.074 2412.344 464.324 2407.004
 456.609 2401.891 c 438.797 2388.316 438.441 2387.949 426.609 2379.391 c
 416.527 2372.215 415.902 2371.695 408.609 2365.891 c 403.32 2361.445 397.352
 2357.582 392.859 2353.141 c 384.238 2346.027 380.27 2342.453 373.359 2336.641
 c 369.453 2333.246 366.367 2330.879 362.859 2327.641 c 358.508 2323.641
 354.137 2320.516 350.109 2316.391 c 342.723 2309.594 334.871 2302.648 329.109
 2296.891 c 309.477 2278.363 307.879 2276.375 289.734 2257.516 c 285.609
 2253.406 282.234 2249.691 282.234 2249.262 c 273.438 2239.809 265.117 2229.75
 256.734 2220.016 c 250.012 2212.066 249.863 2211.797 243.234 2202.766 c
 240.121 2198.613 237.367 2195.441 234.234 2191.516 c 224.93 2179.18 215.266
 2164.707 207.234 2153.242 c 202.742 2147.543 201.637 2145.457 195.234 2134.516
 c 192.75 2130.184 186.457 2120.699 181.734 2112.016 c 179.645 2108.25 176.766
 2104.504 174.984 2100.766 c 174.164 2098.957 173.188 2097.293 172.816 2097.066
 c 172.449 2096.836 169.855 2092.008 167.059 2086.332 c 164.262 2080.656
 161.496 2075.449 160.91 2074.754 c 159.539 2073.125 139.734 2033.559 139.734
 2032.441 c 139.734 2031.977 138.387 2028.973 136.734 2025.766 c 135.086
 2022.559 133.734 2019.527 133.734 2019.031 c 133.734 2018.535 132.047 2014.816
 129.984 2010.766 c 127.922 2006.715 126.234 2002.992 126.234 2002.5 c 126.234
 2002.004 124.887 1998.973 123.234 1995.766 c 117.965 1983.055 117.637 1981.852
 111.984 1967.266 c 111.574 1967.012 111.234 1966.156 111.234 1965.367 c
 109.352 1961.223 108.25 1958.57 104.484 1947.766 c 100.887 1938.426 98.734
 1930.961 95.484 1922.266 c 92.188 1912 91.879 1911.746 87.234 1896.766 
c 78.668 1870.992 70.934 1840.047 66.234 1823.266 c 61.465 1806.191 58.258
 1787.668 54.234 1770.766 c 52.434 1762.832 52.035 1762.078 51.234 1757.266
 c 49.383 1750.273 49.285 1749.785 48.234 1742.266 c 45.941 1730.828 45.723
 1730.691 43.734 1716.766 c 42.719 1711.84 42.254 1711.117 42.234 1708.516
 c 42.051 1705.504 41.313 1704.199 40.734 1700.266 c 39.898 1696.141 39.813
 1695.68 39.234 1691.266 c 37.641 1681.508 37.563 1680.883 36.234 1671.766
 c 33.148 1652.828 33.145 1652.066 31.734 1638.766 c 31.047 1633.426 30.813
 1632.816 30.234 1627.516 c 28.531 1614.305 28.203 1613.555 27.234 1601.266
 c 26.59 1594.488 26.5 1594.09 25.734 1586.266 c 24.621 1576.488 24.719 
1575.809 24.234 1571.266 c 23.383 1562.137 23.25 1561.211 21.984 1548.766
 c 20.457 1536.102 20.313 1535.324 19.172 1515.672 c 18.039 1503.059 18.031
 1490.395 17.297 1479.504 c 17.422 1445.879 17.234 1300.793 17.297 1297.777
 c 17.449 1295.563 17.441 1291.398 18.234 1285.41 c 18.996 1273.301 18.973
 1272.711 19.734 1261.516 c 20.5 1248.066 20.566 1247.25 21.234 1238.266
 c 22.363 1224.359 22.594 1223.004 24.234 1204.516 c 25.09 1196.809 25.254
 1193.809 25.734 1188.766 c 26.457 1181.648 26.375 1180.535 27.234 1173.016
 c 28.336 1164.547 28.391 1164.262 28.734 1159.516 c 30.309 1147.105 30.449
 1144.352 31.734 1136.266 c 33.008 1126.949 33.363 1123.57 34.734 1113.766
 c 36.016 1104.684 36.215 1104.02 37.734 1092.766 c 38.887 1085.387 39.066
 1084.961 40.734 1074.016 c 41.238 1070.918 41.656 1069.07 42.234 1065.766
 c 43.547 1058.25 44.309 1055.191 45.234 1048.516 c 46.313 1042.102 46.684
 1040.879 48.234 1031.266 c 48.828 1028.082 49.055 1027.172 49.734 1023.766
 c 50.969 1017.543 51.605 1015.113 52.734 1008.766 c 53.883 1003.285 54.621
 1000.418 55.734 995.266 c 56.75 989.918 57.293 987.25 58.734 981.766 c 
59.559 978.602 59.684 977.934 60.234 975.016 c 60.859 971.984 61.125 970.816
 61.734 968.266 c 62.426 965.164 62.75 964.035 63.234 961.516 c 63.898 959.023
 64.188 958.051 64.734 955.516 c 65.816 951.055 66.758 947.559 67.734 943.516
 c 68.441 941.223 68.816 940.359 69.234 938.266 c 69.984 936.285 69.789 
936.023 70.734 933.016 c 71.887 928.027 73.273 922.895 74.484 918.016 c 
76.258 911.656 76.188 911.328 77.484 907.516 c 79.152 901.234 79.039 901.105
 80.484 897.016 c 83.453 888.34 83.82 888.02 85.734 879.766 c 87.992 872.414
 90.434 865.496 91.734 861.016 c 94.035 854.258 94.484 852.66 96.234 846.766
 c 97.578 842.723 97.875 842.348 99.234 837.766 c 99.926 834.93 101.258 
832.168 102.234 829.516 c 104.695 822.883 104.836 822.324 106.734 817.516
 c 110.848 807.223 110.996 806.152 114.234 798.016 c 119.418 784.629 120.613
 780.914 126.234 768.016 c 128.469 763.23 130.418 758.656 132.234 754.516
 c 134.469 749.402 136.219 745.156 138.234 741.016 c 146.328 723.973 154.477
 704.723 163.91 689.023 c 164.496 688.332 166.922 683.797 169.305 678.949
 c 171.688 674.102 173.941 669.945 174.313 669.715 c 174.684 669.488 175.664
 667.82 176.484 666.016 c 181.887 657.309 182.738 655.926 186.984 648.016
 c 192.406 639.367 192.715 639.199 195.984 633.016 c 197.641 630.184 197.816
 629.992 200.422 625.656 c 204.77 619.059 204.832 618.84 207.234 615.766
 c 213.734 606.227 213.742 605.793 219.234 597.766 c 226.168 588.121 226.145
 587.969 233.484 577.516 c 239.258 570.156 239.434 569.738 243.984 564.016
 c 249.891 556.664 250.109 555.977 254.484 550.516 c 257.438 546.715 257.691
 546.113 259.734 543.766 c 268.539 533.438 271.766 529.727 279.984 520.516
 c 284.676 515.984 288.836 510.156 292.734 506.266 c 295.703 503.25 296.148
 502.801 298.734 499.527 c 312.863 484.289 323.367 475.172 339.609 459.391
 c 346.68 452.801 349.508 450.535 355.359 445.141 c 360.184 440.891 361.148
 440.215 366.609 435.391 c 373.086 429.563 380.633 423.91 386.109 418.891
 c 393.617 412.422 397.027 409.879 404.109 403.891 c 406.668 401.973 407.84
 401.113 410.109 399.391 c 412.734 397.473 414.039 396.547 416.109 394.891
 c 418.801 392.906 419.973 392.18 422.109 390.391 c 427.348 386.336 429.496
 384.992 434.109 381.391 c 439.348 377.602 440.898 376.254 446.109 372.391
 c 451.414 368.535 453.762 366.992 458.109 363.391 c 462.723 360.047 463.457
 359.785 467.859 356.641 c 472.547 353.766 473.027 353.41 476.859 350.641
 c 480.492 348.203 481.715 347.438 485.109 345.391 c 490.629 341.98 491.863
 341.266 497.516 337.477 c 501.719 334.664 506.328 332.063 509.859 329.641
 c 514.711 326.637 516.078 325.563 522.609 321.391 c 525.855 319.336 528.023
 318.262 530.457 316.551 c 533.867 314.691 536.09 313.453 542.168 310.113
 c 549.313 306.504 557.043 301.891 563.109 298.891 c 568.258 296.352 572.641
 293.996 572.852 293.656 c 573.059 293.32 577.195 291.094 582.047 288.711
 c 586.895 286.328 586.727 286.344 592.137 283.301 c 597.938 280.102 602.285
 278.277 608.109 275.641 c 612.684 273.477 616.691 272.176 620.109 270.391
 c 624.145 268.426 627.07 267.336 632.109 265.141 c 636.484 263.176 640.227
 261.543 644.109 259.891 c 648.875 257.859 652.727 256.371 656.109 254.641
 c 661.039 252.387 662.723 251.688 666.609 250.141 c 668.898 249.41 672.051
 248.027 674.859 247.141 c 682.629 244.297 682.996 243.848 691.359 241.141
 c 696.199 239.586 696.695 239.262 700.359 238.141 c 704.594 236.984 708.938
 235.355 711.609 234.391 c 718.266 232.027 719.051 231.383 725.859 229.141
 c 730.234 227.586 730.863 227.395 734.859 226.141 c 740.262 224.43 740.84
 224.172 744.609 223.141 c 750.637 221.621 751.242 221.398 756.609 220.141
 c 762.148 218.711 762.523 218.523 768.609 217.141 c 775.707 215.238 776.285
 215.059 785.109 212.641 c 788.875 211.559 789.266 211.551 794.109 210.391
 c 797.957 209.379 799.902 208.828 803.109 208.141 c 809.336 206.555 810.074
 206.133 815.109 205.141 c 823.078 203.352 823.984 203.113 830.109 202.141
 c 837.23 200.75 838.008 200.477 845.859 199.141 c 854.625 197.445 855.316
 197.355 862.359 196.141 c 872.016 194.563 874.457 193.852 880.359 193.141
 c 884.559 192.324 885.211 192.105 889.734 191.641 c 889.734 9.391 l 1003.734
 9.391 l 1003.734 182.641 l 1052.645 182.629 1053.262 182.633 1092.367 182.813
 c 1092.234 96.766 l 1092.234 9.391 l 1206.234 9.391 l 1206.234 101.863 
l 1206.234 172.789 1206.445 194.551 1207.137 195.238 c 1207.629 195.734 
1209.805 196.141 1211.965 196.141 c 1215.867 196.648 1217.438 197.016 1221.609
 197.641 c 1226.078 198.438 1226.879 198.559 1230.609 199.141 c 1233.723
 199.652 1234.852 200.016 1238.109 200.641 c 1241.879 201.434 1242.258 201.516
 1245.609 202.141 c 1249.883 203.16 1250.461 203.125 1256.859 204.391 c 
1262.531 205.656 1266.211 206.59 1274.109 208.141 c 1280.449 209.359 1284.781
 210.359 1288.359 211.141 c 1293.199 212.41 1294.699 213.016 1299.609 214.141
 c 1303.277 215.176 1306.91 216.438 1310.109 217.141 c 1315.309 218.355 
1316.672 218.984 1321.359 220.141 c 1326.016 221.289 1325.625 221.246 1331.859
 223.141 c 1339.883 225.199 1340.082 225.273 1348.359 227.641 c 1352.719
 228.738 1355.113 229.262 1361.859 231.391 c 1367.598 233.176 1369.391 233.84
 1372.758 235.141 c 1377.734 236.895 1379.949 237.922 1384.758 239.641 c
 1389.191 241.336 1389.656 241.469 1392.965 242.641 c 1396.023 243.895 1397.957
 244.355 1400.859 245.641 c 1406.73 247.637 1409.012 248.77 1416.965 251.641
 c 1423.098 253.871 1424.316 254.43 1433.465 257.641 c 1437.465 259.359 
1441.203 260.508 1444.359 262.141 c 1450 264.824 1456.238 267.309 1460.859
 269.641 c 1473.297 275.082 1478.469 277.48 1491.48 283.695 c 1493.695 284.75
 1495.992 285.93 1499.332 287.801 c 1502.379 289.473 1504.156 290.453 1509.426
 293.211 c 1520.641 298.813 1531.828 306.047 1541.859 311.641 c 1550.582
 316.773 1551.668 317.496 1558.281 321.355 c 1561.867 323.539 1562.344 323.82
 1566.609 326.641 c 1574.945 332.406 1584.191 337.301 1592.109 343.141 c
 1596.309 345.965 1597.348 346.578 1601.109 349.141 c 1605.59 352.105 1606.348
 352.484 1610.109 355.141 c 1614.707 358.172 1616.469 359.352 1619.859 361.891
 c 1625.281 365.785 1625.918 366.086 1630.359 369.391 c 1635.539 373.43 
1636.258 373.805 1641.609 377.641 c 1645.551 380.711 1646.473 381.34 1649.859
 383.641 c 1653.469 386.457 1654.891 387.473 1658.859 390.391 c 1661.07 
392.414 1663.793 393.797 1665.609 395.641 c 1668.32 397.992 1670.617 399.586
 1673.109 401.641 c 1678.777 406.188 1682.113 408.734 1688.859 414.391 c
 1697.563 421.652 1699.164 422.879 1706.859 429.391 c 1711.332 433.391 1715.719
 437.117 1719.609 440.641 c 1724.953 445.41 1729.008 448.906 1733.109 452.641
 c 1735.359 454.91 1736.23 455.5 1739.84 458.641 c 1764.758 481.477 1791.078
 509.949 1812.984 532.516 c 1818.852 538.547 1822.691 543.313 1827.984 549.016
 c 1832.02 553.5 1834.703 556.781 1837.734 560.266 c 1841.313 564.453 1843.449
 567.117 1846.734 570.766 c 1850.383 574.828 1851.098 575.898 1854.984 580.516
 c 1857.543 583.645 1858.488 585.02 1860.984 588.016 c 1864.363 591.25 1863.969
 593.23 1858.945 598.305 c 1853.988 602.688 1848.699 607.051 1844.859 610.891
 c 1836.777 618.203 1833.191 621.434 1826.859 627.391 c 1820.137 633.625
 1814.723 638.449 1808.859 643.891 c 1802.324 649.891 1796.16 655.324 1790.859
 660.391 c 1783.949 666.719 1778.676 671.496 1772.859 676.891 c 1764.684
 684.484 1761.566 687.199 1754.859 693.391 c 1746.355 701.172 1743.332 703.84
 1736.859 709.891 c 1730.465 715.984 1725.613 720.059 1718.859 726.391 c
 1706.133 738.367 1692.676 750.117 1681.359 760.891 c 1675.105 766.797 1668.566
 772.418 1663.359 777.391 c 1657.199 783.203 1650.66 788.918 1645.359 793.891
 c 1636.152 802.234 1633.551 804.574 1627.359 810.391 c 1617.965 819.344
 1616.957 819.949 1609.359 826.891 c 1602.027 833.594 1596.988 838.137 1591.359
 843.391 c 1584.074 850.422 1583.723 850.652 1573.359 859.891 c 1556.543
 875.734 1549.098 881.895 1535.859 894.391 c 1529.586 900.684 1527.172 902.641
 1525.676 902.641 c 1523.773 902.641 1521.746 900.559 1521.234 899.16 c 
1521.234 899.16 1520.504 898.012 1518.984 896.266 c 1516.961 893.773 1515.859
 892.082 1513.734 889.516 c 1510.68 885.727 1509.789 884.648 1507.734 882.016
 c 1505.098 878.977 1504.492 878.035 1501.734 874.516 c 1499.523 871.852
 1497.977 869.457 1495.734 867.016 c 1492.164 862.664 1488.504 858.281 1485.234
 855.016 c 1472.867 841.41 1468.336 837.254 1461.234 828.762 c 1454.523 
820.316 1444.832 813.113 1438.359 806.641 c 1433.293 801.094 1426.406 796.195
 1421.859 791.641 c 1417.004 787.121 1416.117 786.688 1412.109 783.391 c
 1409.105 780.871 1408.602 780.648 1405.359 778.141 c 1402.211 775.426 1400.488
 774.32 1398.609 772.891 c 1395.105 770.238 1394.008 769.484 1391.859 767.641
 c 1390.25 765.988 1388.098 764.641 1388.098 764.641 c 1387.473 764.242 
1386.559 763.563 1385.109 762.391 c 1381.867 760.004 1381.668 759.887 1379.43
 758.199 c 1374.918 754.961 1374.48 754.773 1370.516 752.301 c 1366.223 
749.516 1365.715 749.297 1361.859 746.641 c 1359.977 745.461 1359.313 745.035
 1357.703 743.977 c 1356.145 742.875 1355.398 742.371 1353.609 741.391 c
 1350.313 739.395 1349.855 738.898 1347.633 737.641 c 1345.773 736.059 1344.488
 735.598 1341.285 733.574 c 1340.801 732.988 1334.43 729.555 1327.129 725.945
 c 1319.863 722.168 1316.34 720.488 1312.594 718.313 c 1310.887 716.805 
1292.383 707.82 1291.219 707.641 c 1291.219 707.641 1289.313 706.824 1287.609
 706.141 c 1284.59 704.691 1281.496 703.586 1278.609 702.391 c 1271.742 
699.391 1263.621 696.18 1258.359 694.141 c 1252.789 692.012 1252.359 691.398
 1246.359 689.641 c 1238.418 687.027 1229.879 683.688 1223.859 682.141 c
 1217.801 680.102 1215.141 679.223 1208.496 677.48 c 1206.242 677.152 l 
1206.051 747.707 l 1205.863 818.266 l 1203.707 818.512 l 1200.547 817.957
 1200.141 817.816 1197.508 817.141 c 1193.078 816.348 1192.543 816.031 1184.863
 814.141 c 1172.496 810.742 1171.852 810.613 1157.863 808.141 c 1154.277
 807.395 1153.105 806.938 1150.363 806.641 c 1143.281 805.613 1139.777 805.141
 1129.363 803.641 c 1117.535 801.789 1106.027 800.113 1095.988 799 c 1092.613
 798.766 l 1092.23 658.141 l 1088.152 658.141 l 1085.91 658.141 1083.867
 657.801 1083.613 657.391 c 1082.879 656.203 1008.34 656.383 1005.77 657.578
 c 1003.754 658.516 l 1003.363 800.266 l 998.488 800.492 l 994.621 800.992
 993.523 801.195 988.258 802.141 c 983.258 802.82 983.414 803.125 979.363
 803.641 c 972.973 804.367 967.934 805.641 961.363 806.641 c 953.605 807.77
 945.961 809.309 938.863 811.141 c 933.531 812.742 927.609 814.039 922.363
 815.641 c 918.379 816.652 914.555 817.609 911.113 818.641 c 907.391 819.652
 903.836 820.793 900.613 821.641 c 898.18 822.352 895.738 823.105 893.578
 824.008 c 892.414 824.387 891.637 824.664 890.965 824.406 c 889.844 823.977
 889.738 817.586 889.738 748.539 c 889.738 701.926 889.469 673.141 889.035
 673.141 c 887.012 673.734 886.57 673.668 884.18 674.441 c 878.344 675.785
 875.891 676.766 872.863 677.641 c 864.094 679.813 855.441 683.074 847.363
 685.141 c 844.039 686.191 841.285 686.965 838.363 688.141 c 835.523 689.234
 833.52 690.141 830.863 691.141 c 826.816 692.637 822.742 694.004 818.863
 695.641 c 811.801 698.148 805.102 700.344 799.363 703.141 c 795.086 705.266
 791.426 706.668 786.391 709.301 c 785.488 709.824 777.117 714.348 767.34
 719.199 c 756.52 724 745.695 730.949 736.363 736.891 c 733.836 738.742 
732.66 739.332 728.113 742.141 c 721.793 746.531 715.387 749.906 709.363
 754.891 c 700.789 761.875 691.105 769.41 685.363 774.391 c 670.875 789.137
 653.625 801.93 637.738 821.305 c 631.836 828.813 631.223 829.566 622.738
 840.016 c 620.668 842.414 619.191 844.5 616.738 847.516 c 613.336 851.781
 611.879 853.531 607.738 859.516 c 604.352 864.227 600.938 869.5 598.738
 873.016 c 594.902 878.82 594.551 879.32 590.902 885.359 c 588.016 889.707
 584.867 894.262 582.512 898.277 c 582.512 898.277 578.32 905.617 574.293
 913.742 c 570.27 921.867 566.496 929.082 565.91 929.777 c 560.656 937.109
 557.773 947.508 553.738 954.766 c 552.293 957.785 551.324 961.207 549.988
 963.766 c 548.176 967.195 547.047 971.281 545.488 974.266 c 542.723 980.156
 540.57 986.359 537.988 992.266 c 537.105 995.332 536.137 996.348 534.238
 1002.016 c 532.262 1008.031 529.789 1015.387 528.238 1020.016 c 526.613
 1025.043 526.352 1025.367 525.238 1029.016 c 524.012 1033.82 520.832 1041.969
 519.238 1047.016 c 516.617 1056.289 514.375 1064.75 513.238 1070.266 c 
511.883 1075.578 511.824 1077.27 510.238 1082.266 c 508.641 1088.465 508.223
 1089.684 507.238 1093.516 c 506.258 1096.883 505.16 1101.25 504.238 1104.766
 c 501.813 1117.086 501.594 1118.188 498.238 1135.516 c 493.863 1156.262
 492.996 1168.402 489.332 1186.703 c 487.855 1199.484 487.395 1199.938 486.238
 1209.766 c 485.738 1214.402 485.598 1216.18 484.738 1221.016 c 484.23 1225.691
 483.488 1228.645 483.238 1232.266 c 482.906 1237.316 481.984 1241.934 481.738
 1246.516 c 480.547 1262.035 478.766 1272.793 478.738 1283.266 c 478.086
 1292.996 477.25 1296.633 477.238 1302.016 c 476.578 1312.035 475.746 1322.09
 475.738 1329.766 c 474.34 1374.949 472.246 1379.648 474.988 1429.516 c 
475.254 1438.684 475.34 1439.949 475.738 1447.516 c 475.934 1461.926 476.027
 1458.938 477.238 1474.516 c 478.758 1492.676 478.895 1494.613 480.238 1512.766
 c 481.637 1529.133 482.145 1531.625 483.238 1543.516 c 483.895 1548.984
 484.129 1551.082 484.738 1555.516 c 485.445 1561.266 485.691 1562.809 486.238
 1566.766 c 486.902 1572.641 487.129 1573.918 487.738 1578.016 c 488.168
 1582.492 488.363 1583.125 489.238 1590.016 c 490.453 1599.25 490.609 1600.098
 492.238 1608.766 c 493.746 1616.859 494.348 1619.738 495.238 1625.266 c
 497.219 1635.957 497.637 1637.578 499.738 1648.516 c 501.637 1657.371 502.156
 1661.688 504.238 1670.266 c 505.867 1677.965 506.316 1678.711 508.738 1687.516
 c 510.191 1694.27 510.547 1695.141 511.738 1699.516 c 515.102 1712.934 
515.477 1713.781 517.738 1722.766 c 521.547 1734.508 522.113 1735.648 523.738
 1740.766 c 525.707 1747.398 525.934 1748.414 527.488 1752.016 c 530.859
 1762.109 530.879 1762.801 533.488 1770.016 c 536.41 1777.902 537.555 1781.723
 540.988 1789.516 c 546.902 1804.645 547.758 1806.156 552.988 1818.016 c
 558.996 1830.125 558.75 1831.344 565.91 1844.5 c 566.496 1845.195 569.605
 1851.082 572.816 1857.586 c 576.027 1864.086 578.945 1869.582 579.297 1869.801
 c 579.652 1870.02 580.961 1872.336 582.207 1874.945 c 584.297 1877.91 584.695
 1879.762 588.238 1884.766 c 593.574 1892.465 591.469 1890.73 597.238 1898.266
 c 601.848 1905.695 602.203 1904.984 608.473 1915.449 c 614.238 1923.785
 614.438 1924.129 619.738 1929.766 c 622.871 1933.492 623.289 1934.512 625.738
 1937.266 c 628.273 1940.461 629.254 1942.078 631.738 1944.766 c 633.555
 1946.707 634.496 1948.121 634.738 1948.477 c 640.926 1957.422 681.523 1995.293
 682.395 1996.141 c 684.063 1997.762 684.785 1998.238 686.113 1999.141 c
 689.48 2001.914 690.75 2002.57 693.613 2005.141 c 696.184 2007.445 698.156
 2008.852 701.113 2011.141 c 703.73 2013.445 704.297 2013.633 708.613 2017.141
 c 714.555 2021.305 715.055 2021.813 722.863 2026.891 c 725.621 2028.637
 726.328 2029.176 728.84 2030.641 c 732.082 2032.832 732.781 2033.258 735.613
 2035.141 c 737.449 2036.289 737.719 2036.414 739.77 2037.801 c 741.895 
2039.191 742.121 2039.395 743.863 2040.391 c 747.523 2042.855 748.246 2043.129
 751.684 2045.195 c 752.84 2046.59 795.57 2067.973 797.633 2068.141 c 799.242
 2068.844 799.664 2069.055 801.262 2069.641 c 802.844 2070.238 803.563 2070.48
 805.363 2071.141 c 807.23 2071.832 808.184 2072.242 809.469 2072.641 c 
811.359 2073.348 811.703 2073.488 813.262 2074.141 c 815.605 2074.934 816.063
 2075.113 817.363 2075.641 c 819.199 2076.332 819.918 2076.445 821.469 2077.141
 c 824.883 2078.438 825.961 2078.75 829.363 2080.141 c 832.504 2081.227 
833.211 2081.5 835.363 2082.391 c 838.109 2083.391 838.551 2083.602 841.363
 2084.641 c 843.199 2085.332 844.039 2085.543 846.219 2086.141 c 848.594
 2086.863 848.914 2087.004 851.113 2087.641 c 853.387 2088.277 854.168 2088.543
 856.363 2089.141 c 859.051 2089.91 859.219 2089.973 861.613 2090.641 c 
863.859 2091.371 864.086 2091.426 866.863 2092.141 c 869.52 2092.926 869.805
 2093.02 872.113 2093.641 c 874.375 2094.258 874.586 2094.359 877.363 2095.141
 c 879.789 2095.754 880.262 2095.941 883.363 2096.641 c 884.844 2096.84 
885.91 2097.027 886.363 2097.391 c 886.742 2097.691 887.484 2098.141 888.285
 2098.141 c 889.715 2098.141 889.738 2096.867 889.738 2022.059 c 889.738
 1968.082 889.977 1945.832 890.555 1945.473 c 891.996 1945.414 893.406 1946.152
 894.719 1946.641 c 899.844 1948.445 896.977 1947.398 904.363 1949.641 c
 909.992 1951.352 912.594 1952.008 917.863 1953.391 c 922.449 1954.59 923.633
 1954.965 931.363 1957.141 c 938.762 1959.32 935.941 1958.52 941.863 1960.141
 c 945.375 1960.988 945.133 1960.824 948.613 1961.641 c 953.445 1962.66 
954.313 1962.859 956.766 1963.238 c 960.914 1963.883 962.363 1964.125 965.863
 1964.641 c 970.555 1965.438 971.84 1965.676 974.113 1966.141 c 977.152 
1966.66 978.793 1966.996 982.363 1967.641 c 986.969 1968.422 987.797 1968.691
 991.16 1969.172 c 995.629 1970.063 996.746 1970.109 999.789 1970.648 c 
1003.363 1971.016 l 1003.555 2042.078 l 1003.742 2113.141 l 1019.145 2113.258
 1020.051 2113.352 1028.863 2113.891 c 1031.645 2114.461 1070.027 2114.129
 1073.113 2113.891 c 1078.637 2113.234 1079.344 2113.234 1092.23 2113.141
 c 1092.613 1972.516 l 1097.488 1972.289 l 1102.348 1972.414 1112.859 1970.527
 1124.113 1968.391 c 1132.988 1967.016 1134.801 1966.785 1139.863 1966.141
 c 1144.301 1965.535 1146.297 1965.086 1148.863 1964.641 c 1151.402 1964.25
 1154.25 1963.477 1156.363 1963.141 c 1160.719 1962.422 1164.996 1961.105
 1169.113 1960.141 c 1173.668 1959.074 1178.223 1958.125 1182.613 1957.141
 c 1184.652 1956.758 1187.051 1956.055 1188.613 1955.641 c 1191.949 1954.809
 1192.895 1954.512 1194.613 1954.141 c 1197.035 1953.477 1198.066 1953.109
 1199.539 1952.641 c 1200.43 1952.359 1201.598 1952.082 1202.445 1951.754
 c 1203.328 1951.543 1204.34 1951.113 1205.012 1951.371 c 1206.133 1951.805
 1206.238 1957.91 1206.238 2023.492 c 1206.238 2095.141 l 1208.441 2095.141
 l 1210.602 2095.02 1211.988 2094.32 1214.113 2093.641 c 1220.32 2091.656
 1223.066 2090.742 1228.363 2089.141 c 1234.141 2087.266 1235.375 2086.953
 1242.613 2084.641 c 1252.578 2081.141 1253.723 2080.543 1262.863 2077.141
 c 1274.844 2072.816 1279.285 2070.832 1289.113 2066.641 c 1300.68 2061.875
 1311.32 2055.461 1321.137 2050.582 c 1335.711 2042.902 1336.164 2042.578
 1347.613 2035.891 c 1353.176 2032.535 1358.605 2029.004 1364.113 2025.391
 c 1377.25 2017.289 1390.277 2007.43 1401.613 1998.391 c 1406.895 1994.57
 1412.121 1990.23 1415.863 1987.141 c 1420.836 1983.102 1425.668 1978.832
 1429.363 1975.141 c 1434.297 1970.191 1435.484 1969.543 1439.105 1966.141
 c 1450.906 1955.063 1451.688 1954.074 1467.238 1937.996 c 1469.578 1935.574
 1470.75 1934.266 1475.488 1929.016 c 1482.613 1921.691 1482.988 1921.129
 1488.988 1914.016 c 1492.48 1910.086 1493.313 1909.305 1496.488 1905.016
 c 1498.512 1902.207 1499.098 1901.605 1501.738 1898.266 c 1504.469 1894.672
 1504.82 1894.18 1507.738 1890.766 c 1510.801 1887.105 1511.152 1886.414
 1513.738 1883.266 c 1516.316 1880.156 1517.145 1878.977 1518.707 1876.793
 c 1520.121 1875.129 1521.055 1873.988 1521.52 1873.074 c 1524.031 1868.117
 1527.121 1869.559 1538.473 1880.977 c 1691.648 2024.605 1694.156 2026.172
 1846.363 2164.141 c 1852.859 2170.305 1863.238 2180.18 1863.238 2181.473
 c 1863.238 2182.125 1862.594 2183.004 1861.738 2184.016 c 1859.789 2186.785
 1858.098 2188.867 1855.738 2191.516 c 1851.77 2195.898 1847.953 2200.801
 1844.488 2204.266 c 1838.914 2210.102 1833.445 2216.805 1828.738 2221.516
 c 1823.785 2226.453 1823.852 2226.98 1819.738 2231.258 c 1813.117 2238.137
 1772.684 2278.461 1769.848 2281.141 c 1765.031 2285.695 1764.828 2285.809
 1757.113 2293.141 c 1746.816 2302.535 1746.559 2302.629 1739.113 2309.641
 c 1733.246 2314.754 1732.688 2315.18 1728.613 2318.641 c 1722.98 2323.656
 1722.617 2323.945 1718.113 2327.641 c 1712.547 2332.723 1712.184 2332.914
 1707.613 2336.641 c 1705.164 2339.113 1702.793 2341.141 1702.352 2341.141
 c 1701.906 2341.141 1700.223 2342.488 1698.613 2344.141 c 1695.617 2346.57
 1694.695 2347.324 1691.863 2349.391 c 1684.809 2354.895 1684.156 2355.418
 1678.363 2359.891 c 1673.332 2363.906 1671.285 2365.52 1664.863 2370.391
 c 1656.738 2376.754 1656.648 2376.73 1652.113 2380.141 c 1645.133 2385.027
 1644.926 2385.141 1637.113 2390.641 c 1632.711 2393.805 1632.57 2393.98
 1628.836 2396.641 c 1616.969 2405.09 1616.605 2405.301 1602.957 2414.301
 c 1593.535 2420.52 1593.289 2420.746 1583.836 2426.641 c 1576.188 2431.574
 1575.969 2431.789 1571.887 2434.141 c 1565.867 2438.219 1565.637 2438.359
 1557.629 2443.113 c 1550.957 2446.977 1549.43 2447.938 1543.363 2451.391
 c 1534.598 2456.531 1534.48 2456.719 1526.863 2461.141 c 1519.5 2465.25
 1518.863 2465.746 1514.863 2467.891 c 1507.871 2471.816 1507.379 2472.145
 1503.41 2474.344 c 1496.039 2478.223 1495.859 2478.395 1488.652 2482.141
 c 1487.266 2482.77 1477.039 2487.539 1463.863 2494.141 c 1438.516 2505.633
 1437.93 2505.914 1420.363 2513.641 c 1405.18 2519.602 1404.828 2519.719
 1390.363 2525.641 c 1384.438 2527.957 1383.918 2528.035 1378.363 2530.141
 c 1363.848 2535.074 1363.512 2535.125 1354.363 2538.391 c 1347.203 2540.758
 1346.41 2540.926 1342.363 2542.141 c 1333.715 2544.75 1333.473 2544.73 
1319.863 2548.891 c 1301.176 2554.641 1300.863 2554.695 1274.863 2560.891
 c 1255.91 2565.523 1255.598 2565.559 1236.613 2569.141 c 1225.402 2571.289
 1213.773 2573.641 1212.719 2573.641 c 1209.813 2573.906 1207.645 2574.031
 1207.137 2574.539 c 1206.445 2575.23 1206.238 2596.324 1206.238 2664.914
 c 1206.238 2754.391 l 1092.238 2754.391 l 1092.238 2587.141 l 1081.594 
2587.234 l 1054.188 2588.781 1038.098 2588.961 1011.941 2587.141 c 1003.738
 2587.141 l 1003.738 2754.391 l 889.738 2754.391 l h
3719.484 2062.188 m 3711.301 2059.68 3701.258 2050.988 3696.898 2042.629
 c 3694.359 2037.766 l 3694.359 1044.016 l 3696.898 1039.148 l 3700.195 
1032.828 3707.922 1025.102 3714.246 1021.805 c 3719.109 1019.266 l 3833.141
 1019.266 l 3838.332 1021.82 l 3845.281 1025.238 3852.633 1032.59 3856.055
 1039.539 c 3858.609 1044.727 l 3858.984 1060.496 l 3859.305 1073.867 3859.574
 1076.691 3860.758 1079.074 c 3865.063 1087.738 3880.688 1093.934 3887.586
 1089.711 c 3888.148 1089.363 3892.348 1085.859 3896.918 1081.922 c 3932.297
 1051.441 3958.605 1035.535 3996.129 1021.953 c 4009.484 1017.121 4031.418
 1011.617 4042.359 1010.359 c 4044.422 1010.121 4051.953 1009.215 4059.09
 1008.344 c 4070.523 1006.953 4074.949 1006.805 4096.215 1007.09 c 4113.738
 1007.328 4122.625 1007.766 4128.609 1008.688 c 4133.148 1009.387 4140.258
 1010.43 4144.414 1011.004 c 4170.723 1014.648 4206.664 1025.969 4233.855
 1039.18 c 4263.895 1053.773 4278.785 1064.582 4306.629 1091.996 c 4322.527
 1107.648 4336.098 1122.512 4344.969 1133.996 c 4350.691 1141.398 4363.492
 1160.508 4370.105 1171.516 c 4375.902 1181.164 4389.453 1207.766 4393.23
 1216.91 c 4406.023 1247.879 4415.004 1283.703 4419.176 1320.391 c 4426.027
 1380.66 4426.02 1411.676 4419.148 1466.547 c 4416.777 1485.457 4412.895
 1503.207 4405.59 1528.516 c 4403.434 1535.977 4395 1559.148 4390.578 1569.766
 c 4373.648 1610.398 4342.031 1656.691 4309.625 1688.301 c 4272.926 1724.094
 4226.695 1752.406 4180.734 1767.23 c 4169.254 1770.938 4161.027 1772.719
 4143.984 1775.203 c 4121.797 1778.434 4114.477 1778.961 4091.859 1778.945
 c 4068.313 1778.926 4059.57 1778.184 4035.008 1774.109 c 3984.676 1765.762
 3948.82 1747.168 3896.234 1702.141 c 3892.621 1699.047 3888.59 1695.926
 3887.273 1695.203 c 3879.867 1691.137 3865.402 1697.055 3860.957 1705.973
 c 3858.984 1709.934 l 3858.984 1872.074 l 3858.984 2055.535 3859.633 2037.68
 3852.629 2047.457 c 3850.102 2050.988 3847.082 2054.008 3843.551 2056.535
 c 3834.199 2063.234 3837.797 2062.898 3775.836 2062.824 c 3745.875 2062.789
 3720.516 2062.504 3719.484 2062.188 c h
4054.992 1619.293 m 4068.734 1617.59 4086.492 1613.848 4096.242 1610.602
 c 4107.234 1606.941 4127.234 1597.344 4137.867 1590.629 c 4185.965 1560.25
 4220.34 1517.137 4238.223 1464.766 c 4245.992 1442.016 4248.508 1424.648
 4248.492 1393.891 c 4248.492 1366.598 4246.816 1351.949 4241.445 1331.762
 c 4234.73 1306.543 4221.699 1278.547 4207.355 1258.516 c 4192.156 1237.293
 4165.277 1211.07 4145.109 1197.789 c 4109.809 1174.535 4073.977 1163.551
 4033.359 1163.523 c 4000.805 1163.5 3970.965 1171.176 3939.234 1187.727
 c 3922.68 1196.363 3892.742 1217.785 3879.734 1230.301 c 3871.277 1238.438
 3865.602 1248.133 3861.453 1261.516 c 3859.359 1268.266 l 3859.359 1390.141
 l 3859.359 1505.266 3859.438 1512.336 3860.723 1517.82 c 3863.508 1529.688
 3869.762 1541.578 3877.355 1549.434 c 3883.234 1555.512 3908.457 1575.336
 3920.859 1583.625 c 3950.301 1603.301 3975.094 1613.77 4003.359 1618.457
 c 4013.633 1620.164 4013.547 1620.156 4030.391 1620.277 c 4040.375 1620.348
 4049.406 1619.988 4054.992 1619.293 c h
1016.859 1943.641 m 1011.051 1943.359 1006.363 1942.488 1001.859 1942.141
 c 997.82 1941.613 995.199 1941.125 991.359 1940.641 c 987.156 1940.008 
983.699 1939.527 980.109 1939.141 c 970.266 1937.637 968.93 1937.473 959.109
 1935.391 c 953.527 1933.871 952.785 1933.816 949.359 1933.141 c 946.09 
1932.535 945.363 1932.363 942.609 1931.641 c 938.383 1930.586 935.137 1929.699
 930.609 1928.641 c 926.566 1927.797 923.328 1926.637 919.359 1925.641 c
 899.484 1918.848 894.008 1916.727 879.609 1911.391 c 876.977 1910.246 875.902
 1909.77 874.414 1909.141 c 872.516 1908.336 869.5 1907.113 864.609 1904.641
 c 852.781 1899.566 839.707 1892.539 831.063 1887.844 c 823.891 1884.277
 820.602 1882.215 812.109 1876.891 c 801.121 1870.121 789.32 1862.609 779.859
 1855.141 c 773.445 1850.691 768.285 1847.258 762.609 1842.391 c 756.516
 1837.105 749.973 1832.676 744.609 1827.391 c 740.422 1823.711 735.871 1820.152
 732.609 1816.891 c 722.828 1808.797 714.285 1798.676 705.984 1790.266 c
 701.449 1785.883 697.84 1780.93 693.984 1776.766 c 689.387 1770.813 684.656
 1764.371 680.484 1758.766 c 677.293 1754.789 674.723 1750.285 671.484 1746.766
 c 667.992 1741.996 664.043 1736.551 661.703 1731.695 c 660.457 1729.086
 659.129 1726.758 658.75 1726.523 c 658.375 1726.293 656.68 1723.25 654.984
 1719.766 c 653.289 1716.281 651.605 1713.246 651.242 1713.02 c 643.801 
1698 637.773 1685.324 631.734 1673.266 c 630.289 1670.246 629.32 1666.824
 627.984 1664.266 c 623.652 1653.938 619.941 1645.66 616.734 1635.016 c 
615.746 1631.742 614.555 1628.309 613.734 1625.266 c 613.262 1623.273 612.688
 1621.848 612.234 1620.016 c 611.594 1618.215 611.219 1617.18 610.734 1615.516
 c 609.707 1612.059 608.758 1608.441 607.734 1605.016 c 606.023 1598.086
 602.977 1591.406 601.734 1584.016 c 598.148 1566.504 594.699 1547.777 591.234
 1531.516 c 589.883 1519.883 586.914 1507.969 586.734 1497.016 c 586.875
 1492.492 585.25 1488.102 585.234 1484.266 c 585.121 1479.738 583.75 1475.355
 583.734 1471.516 c 583.258 1465.375 582.246 1459.223 582.234 1454.266 c
 578.996 1418.516 579.867 1383.738 580.734 1344.016 c 581.004 1329.93 582.742
 1315.957 583.734 1302.766 c 587.066 1278.688 588.188 1254.309 592.734 1233.766
 c 593.965 1226.453 595.719 1219.695 596.484 1215.016 c 597.766 1208.898
 598.789 1203.594 599.484 1200.016 c 600.879 1190.969 604.063 1180.676 606.234
 1172.266 c 607.344 1168.008 608.25 1165.75 610.734 1157.266 c 611.785 1152.992
 612.781 1151.203 613.734 1146.766 c 615.234 1141.789 616.766 1136.488 618.234
 1131.766 c 619.449 1128.48 620.543 1124.852 621.984 1122.016 c 623.539 
1118.617 624.531 1115.699 625.734 1113.016 c 629.484 1102.855 634.305 1093.066
 637.734 1083.895 c 641.031 1076.09 645.957 1068.305 649.293 1061.457 c 
651.891 1056.422 655.152 1051.242 657.234 1047.016 c 659.145 1042.742 662.008
 1038.676 663.949 1035.094 c 665.758 1031.98 667.816 1028.543 669.984 1026.016
 c 671.707 1023.766 673.184 1021.711 674.484 1020.016 c 683.75 1008.355 
684.676 1005.961 695.484 991.516 c 699.809 986.785 703.805 981.695 707.484
 978.016 c 715.512 968.578 724.281 961.07 733.359 952.141 c 747.512 939.543
 747.473 940.082 763.359 926.641 c 765.984 924.645 767.477 923.691 769.359
 922.141 c 771.418 920.75 772.871 919.676 774.609 918.391 c 787.578 909.047
 799.039 900.746 812.109 892.891 c 815.531 890.93 816.93 890.125 821.109
 887.641 c 827.195 883.922 830.582 882.008 836.629 878.809 c 844.5 874.195
 852.941 870.609 860.109 867.391 c 864.984 864.77 870.859 862.816 875.109
 860.641 c 894.793 852.742 918.93 844.984 933.609 841.141 c 951.57 837.059
 970.945 832.219 987.609 830.641 c 993.277 829.82 995.977 829.156 999.609
 829.141 c 1005.219 828.625 1010.785 827.648 1015.359 827.641 c 1029.688
 826.523 1043.266 826.145 1053.984 826.141 c 1071.77 826.012 1077.121 826.582
 1091.859 827.641 c 1112.172 829.492 1112.207 829 1127.859 831.391 c 1146.051
 834.402 1142.727 834.098 1156.359 836.641 c 1171.453 840.027 1172.344 840.18
 1188.609 844.141 c 1204.137 848.484 1209.707 850.176 1216.359 852.391 c
 1220.648 853.59 1221.477 854.023 1225.359 855.391 c 1235.297 859.379 1241.992
 861.617 1250.859 865.891 c 1264.914 872.398 1265.852 872.57 1280.348 880.313
 c 1289.57 885.555 1290 885.758 1306.766 896.301 c 1315.789 902.051 1324.758
 908.395 1331.109 913.141 c 1342.496 921.848 1344.113 922.676 1355.109 931.141
 c 1363.223 938.32 1372.289 945.465 1379.109 952.141 c 1398.344 969.5 1404.152
 976.234 1417.734 990.051 c 1418.293 990.617 1419.391 992.137 1421.484 994.516
 c 1424.016 997.27 1425.234 998.82 1425.234 1000.113 c 1425.234 1001.641
 1410.395 1016.859 1350.422 1076.828 c 1309.273 1117.977 1275.094 1151.641
 1274.465 1151.641 c 1273.223 1151.641 1264.125 1141.852 1263.234 1140.738
 c 1262.617 1139.965 1232.855 1110.246 1232.07 1109.641 c 1231.43 1109.148
 1230.301 1108.195 1228.359 1106.641 c 1226.426 1104.34 1223.418 1103.254
 1221.609 1101.391 c 1219.785 1099.473 1217.219 1098.547 1215.609 1096.891
 c 1211.785 1093.426 1208.227 1091.867 1206.203 1090.477 c 1199.594 1085.719
 1194.629 1083.52 1191.094 1081.316 c 1176.332 1073.277 1160.754 1065.988
 1145.859 1061.641 c 1142.262 1060.469 1141.184 1060.125 1136.109 1058.641
 c 1129.645 1056.723 1123.84 1055.52 1117.359 1054.141 c 1113.613 1053.301
 1112.672 1053.078 1109.859 1052.641 c 1106.664 1051.965 1104.699 1051.742
 1101.609 1051.141 c 1097.406 1050.434 1093.156 1050.047 1089.609 1049.641
 c 1083.316 1048.891 1090.828 1049.75 1082.109 1048.891 c 1073.18 1048.078
 1041.961 1048.641 1033.359 1048.891 c 1030.668 1049.254 1032.797 1048.914
 1027.359 1049.641 c 1018.91 1050.504 1009.324 1051.824 1004.109 1052.641
 c 1000.879 1053.223 1001.156 1053.16 996.609 1054.141 c 990.188 1055.355
 983.977 1056.645 979.359 1057.891 c 972.906 1059.621 970.152 1060.328 966.609
 1061.641 c 963.645 1062.684 960.961 1063.645 958.359 1064.641 c 955.715
 1065.586 955.047 1065.84 950.633 1067.641 c 946.723 1069.246 927.223 1079.227
 917.887 1084.141 c 912.23 1087.82 905.715 1091.938 901.359 1095.391 c 898.453
 1097.746 895.852 1099.762 893.109 1102.141 c 890.52 1104.379 892.285 1102.891
 887.867 1106.641 c 881.078 1112.246 873.914 1120.211 869.484 1125.766 c
 863.648 1131.719 858.531 1139.313 854.484 1145.266 c 850.688 1150.227 846.914
 1155.902 844.266 1161.266 c 842.73 1164.43 842.402 1164.867 840.406 1168.281
 c 834.332 1178.371 831.277 1187.145 825.984 1199.266 c 823.773 1204.176
 822.027 1210.043 820.734 1213.516 c 818.922 1219.813 817.098 1224.734 814.734
 1231.516 c 813.387 1236.625 812.473 1239.777 811.734 1242.766 c 809.707
 1251.941 807.254 1260.699 805.734 1268.266 c 804.777 1274.598 803.438 1280.602
 802.734 1286.266 c 801.613 1292.035 799.844 1299.457 799.734 1305.766 c
 799.348 1315.863 796.852 1326.277 796.734 1335.766 c 796 1343.875 795.238
 1351.789 795.234 1358.266 c 794.266 1372.543 794.145 1373.461 793.734 1387.141
 c 794.293 1407.441 795.273 1419.68 796.734 1439.266 c 798.16 1451.539 797.609
 1445.43 798.234 1455.016 c 799.602 1472.855 802.906 1489.227 805.734 1506.016
 c 806.98 1510.828 807.809 1514.316 808.734 1518.016 c 809.219 1520.59 809.973
 1522.871 810.234 1524.766 c 810.75 1527.383 811.395 1529.539 811.852 1531.539
 c 813.203 1535.668 814.34 1539.855 815.461 1543.516 c 816.684 1548.645 
818.266 1553.551 819.984 1558.516 c 821.344 1561.867 822.262 1565.797 823.734
 1569.016 c 825.082 1572.07 826.328 1575.395 827.484 1578.016 c 828.652 
1580.555 829.551 1582.727 829.734 1583.172 c 830.203 1584.313 840.508 1605.844
 841.91 1607.5 c 842.496 1608.195 844.215 1611.32 845.73 1614.445 c 847.246
 1617.574 849.402 1620.688 850.359 1621.891 c 851.688 1623.805 852.57 1625.367
 853.734 1626.766 c 855.09 1628.574 856.277 1630.492 857.484 1632.016 c 
859.02 1634.074 859.922 1635.707 861.234 1637.266 c 865.379 1642.922 870.984
 1648.773 874.734 1653.016 c 879.805 1659.578 887.355 1664.84 892.359 1669.891
 c 894.625 1671.906 894.594 1672.07 896.867 1673.641 c 900.246 1676.371 
903.438 1678.988 906.609 1681.141 c 907.988 1682.25 909.426 1682.906 910.766
 1683.801 c 911.742 1684.441 913.117 1685.395 914.859 1686.391 c 916.582
 1687.316 918.051 1688.34 918.953 1688.977 c 920.777 1690.176 920.93 1690.254
 922.707 1691.23 c 929.996 1695.625 933.965 1697.121 935.184 1697.641 c 
944.906 1702.258 955.676 1706.602 965.109 1709.641 c 967.051 1710.215 967.684
 1710.488 969.609 1711.141 c 971.504 1711.926 971.762 1711.965 974.109 1712.641
 c 976.09 1713.23 976.395 1713.258 979.359 1714.141 c 982.117 1714.785 983.68
 1715.039 986.109 1715.641 c 990.965 1716.609 993.363 1717.184 997.359 1717.891
 c 1001.938 1718.836 1001.633 1718.953 1010.109 1720.141 c 1015.48 1720.629
 1015.359 1720.676 1023.609 1721.641 c 1037.281 1723.113 1049.668 1723.133
 1059.984 1723.141 c 1071.555 1723.324 1085.379 1722.988 1095.609 1721.641
 c 1096.441 1721.52 1101.727 1720.93 1106.109 1720.141 c 1109.68 1719.691
 1112.859 1719.055 1115.109 1718.641 c 1120.266 1717.891 1121.02 1717.566
 1123.359 1717.141 c 1128.102 1716.27 1132.398 1715.063 1135.359 1714.141
 c 1140.668 1712.672 1144.102 1711.629 1148.109 1710.391 c 1153.035 1708.887
 1155.551 1707.988 1158.609 1706.641 c 1164.48 1704.297 1167.637 1703.008
 1172.777 1700.641 c 1174.742 1699.867 1186.523 1694.281 1191.094 1691.469
 c 1198.441 1687.262 1203.945 1684.246 1209.93 1680.078 c 1214.816 1676.281
 1220.27 1672.523 1224.609 1669.141 c 1238.496 1658.504 1250.855 1644.914
 1263.234 1631.977 c 1265.832 1628.773 1268.18 1626.449 1270.668 1622.805
 c 1271.508 1621.711 1272.066 1621.141 1273.531 1621.141 c 1275.293 1621.141
 1287.102 1632.625 1350.426 1695.953 c 1372.777 1718.723 1395.766 1740.871
 1417.781 1763.969 c 1427.684 1773.492 1427.008 1770.367 1422.234 1776.699
 c 1411.879 1789.324 1397.172 1801.023 1386.609 1811.641 c 1383.266 1815.031
 1378.961 1817.777 1376.109 1820.641 c 1372.766 1824.031 1368.461 1826.777
 1365.609 1829.641 c 1362.816 1832.5 1359.215 1834.957 1356.609 1837.141
 c 1354.465 1839.25 1352.16 1840.688 1349.859 1842.391 c 1347.297 1844.281
 1344.266 1846.176 1342.383 1847.641 c 1339.27 1850.238 1339.152 1850.211
 1336.336 1852.141 c 1330.594 1856.16 1324.168 1860.465 1318.68 1864.578
 c 1315.633 1866.879 1312.688 1868.484 1309.766 1870.477 c 1307.125 1872.32
 1304.535 1873.918 1301.785 1875.426 c 1298.844 1877.273 1296.723 1878.801
 1294.359 1879.891 c 1288.418 1883.113 1282.711 1887.227 1276.918 1890.082
 c 1269.367 1893.68 1262.543 1898.953 1254.578 1901.641 c 1254.129 1901.773
 1250.41 1903.328 1246.359 1905.391 c 1236.949 1909.348 1227.969 1914.313
 1218.609 1916.641 c 1216.508 1917.48 1215.969 1917.594 1214.109 1918.141
 c 1212.031 1918.785 1211.445 1918.941 1209.609 1919.641 c 1207.883 1920.168
 1206.969 1920.535 1205.109 1921.141 c 1177.301 1929.02 1148.961 1936.914
 1123.359 1940.641 c 1118.832 1941.25 1114.703 1941.707 1110.609 1942.141
 c 1104.777 1942.617 1099.309 1943.156 1094.109 1943.641 c 1089.563 1944.086
 1094.109 1943.641 1085.859 1944.391 c 1082 1944.891 1074.602 1945.273 1056.234
 1945.141 c 1043.473 1945.535 1021.785 1944.027 1016.859 1943.641 c h
1758.984 1779.637 m 1714.914 1777.219 1672.625 1764.945 1639.527 1744.973
 c 1626.488 1737.102 1621.363 1733.418 1612.508 1725.551 c 1590.379 1705.891
 1573.117 1680.211 1564.406 1654.004 c 1552.516 1618.23 1549.266 1573.754
 1555.43 1531.141 c 1556.723 1522.184 1561.004 1503.156 1563.359 1495.891
 c 1567.656 1482.617 1575.652 1466.23 1583.871 1453.844 c 1602.531 1425.719
 1630.039 1402.73 1666.359 1384.906 c 1714.934 1361.074 1766.91 1347.777
 1852.359 1337.324 c 1876.953 1334.313 1913.934 1331.676 1984.734 1327.883
 c 2006.809 1326.699 2011.008 1326.09 2016.758 1323.262 c 2025.559 1318.93
 2035.055 1307.43 2037.297 1298.395 c 2039.266 1290.445 2035.352 1247.035
 2030.793 1226.266 c 2023.555 1193.297 1999.309 1164.957 1965.746 1150.238
 c 1952.797 1144.559 1931.703 1139.371 1913.109 1137.293 c 1880.957 1133.703
 1833.742 1139.426 1795.734 1151.523 c 1764.527 1161.457 1742.988 1171.352
 1701.984 1194.586 c 1696.297 1197.813 1689.902 1200.832 1687.391 1201.48
 c 1678.238 1203.852 1662.348 1202.391 1654.594 1198.469 c 1649.574 1195.93
 1643.957 1190.918 1634.414 1180.465 c 1613.734 1157.813 1600.852 1140.934
 1598.727 1133.719 c 1596.969 1127.738 1597.191 1116.711 1599.195 1110.27
 c 1602.332 1100.215 1606.254 1096.441 1628.375 1082.195 c 1650.023 1068.254
 1677.57 1053.137 1699.734 1043.039 c 1719.07 1034.23 1727.574 1030.887 
1745.484 1025.051 c 1777.262 1014.695 1801.941 1009.445 1847.484 1003.355
 c 1861.492 1001.48 1863.637 1001.395 1898.109 1001.367 c 1932.988 1001.34
 1934.613 1001.402 1950.234 1003.387 c 1959.105 1004.516 1966.867 1005.59
 1967.484 1005.773 c 1968.105 1005.957 1972.492 1006.641 1977.234 1007.293
 c 1992.266 1009.359 2021.289 1015.574 2035.359 1019.742 c 2045.934 1022.875
 2069.652 1032.059 2077.863 1036.203 c 2110.652 1052.75 2136.898 1073.836
 2157.594 1100.266 c 2173.469 1120.535 2186.805 1147.703 2193.203 1172.813
 c 2199.285 1196.664 2199.98 1207.543 2199.984 1278.906 c 2199.984 1332.727
 2200.027 1334.387 2202.242 1364.031 c 2204.5 1394.266 l 2204.109 1737.047
 l 2201.543 1742.281 l 2198.105 1749.297 2190.891 1756.512 2183.875 1759.949
 c 2178.641 1762.516 l 2122.043 1762.715 l 2065.441 1762.918 l 2059.91 1760.289
 l 2052.164 1756.613 2045.582 1750.145 2041.711 1742.41 c 2038.734 1736.465
 l 2038.707 1711.242 l 2038.68 1688.465 2038.555 1685.723 2037.324 1683.008
 c 2033.75 1675.145 2020.508 1668.863 2012.84 1671.391 c 2010.871 1672.043
 2006.363 1675.848 1997.934 1683.977 c 1949.871 1730.316 1903.059 1758.156
 1849.723 1772.113 c 1826.461 1778.199 1808.438 1780.227 1779.598 1779.996
 c 1770.523 1779.922 1761.242 1779.762 1758.973 1779.637 c h
1854.609 1652.258 m 1861.621 1651.641 1868.543 1650.953 1869.984 1650.727
 c 1884.129 1648.535 1891.156 1646.719 1905.234 1641.613 c 1923.918 1634.844
 1941.555 1624.645 1959.766 1610.086 c 1975.16 1597.777 1998.973 1573.949
 2016.168 1553.641 c 2023.164 1545.379 2026.133 1540.859 2030.133 1532.414
 c 2037.203 1517.461 2038.727 1507.336 2038.73 1475.145 c 2038.73 1448.293
 2038.379 1445.766 2033.5 1438.16 c 2028.637 1430.582 2019.043 1423.473 
2011.848 1422.121 c 2010.465 1421.859 1998.316 1422.473 1984.848 1423.48
 c 1971.379 1424.488 1952.598 1425.691 1943.109 1426.152 c 1904.992 1428.008
 1869.676 1432.875 1844.859 1439.699 c 1804.621 1450.762 1777.887 1466.633
 1756.602 1492.098 c 1745.934 1504.859 1735.652 1526.199 1732.996 1541.094
 c 1731.441 1549.801 1731.262 1567.742 1732.648 1575.391 c 1734.648 1586.406
 1741.594 1602.473 1748.027 1610.965 c 1757.512 1623.492 1768.676 1632.773
 1782.609 1639.723 c 1799.461 1648.121 1810.508 1650.816 1836.609 1652.898
 c 1838.262 1653.031 1840.117 1653.191 1840.734 1653.262 c 1841.355 1653.328
 1847.598 1652.875 1854.609 1652.258 c h
5721.609 1779.352 m 5694.855 1777.406 5664.109 1771.938 5637.609 1764.398
 c 5605.508 1755.27 5563.773 1737.652 5539.395 1722.938 c 5519.809 1711.113
 5490.828 1690.824 5483.719 1683.953 c 5479.707 1680.074 5476.348 1673.766
 5474.793 1667.188 c 5473.082 1659.93 5473.746 1648.762 5476.215 1643.371
 c 5478.922 1637.457 5510.648 1590.27 5516.484 1583.48 c 5523.148 1575.723
 5537.832 1571.125 5549.934 1573.008 c 5556.891 1574.09 5558.191 1574.754
 5577.984 1587.367 c 5600.492 1601.707 5609.23 1606.801 5625.609 1615.129
 c 5654.813 1629.977 5676.824 1637.664 5705.859 1643.16 c 5724.949 1646.777
 5738.59 1648.141 5755.516 1648.133 c 5780.617 1648.121 5806.023 1644 5826.273
 1636.66 c 5857.086 1625.488 5879.121 1603.465 5888.332 1574.641 c 5897.75
 1545.156 5888.813 1519.355 5862.246 1499.344 c 5843.898 1485.523 5816.738
 1475.23 5757.234 1459.551 c 5711.863 1447.59 5701.602 1444.691 5677.359
 1436.992 c 5625.688 1420.582 5595 1406.219 5567.625 1385.641 c 5544.688
 1368.395 5529.313 1349.891 5516.836 1324.516 c 5507.953 1306.441 5502.199
 1287.941 5499.461 1268.641 c 5497.512 1254.922 5497.512 1199.133 5499.461
 1185.391 c 5503.707 1155.371 5517.594 1122.672 5536.441 1098.297 c 5554.094
 1075.477 5578.426 1054.141 5602.363 1040.496 c 5624.855 1027.68 5645.48
 1019.246 5669.863 1012.898 c 5686.859 1008.473 5695.277 1007.211 5725.027
 1004.641 c 5736.285 1003.664 5792.219 1003.668 5803.996 1004.648 c 5809.012
 1005.063 5817.332 1005.754 5822.488 1006.184 c 5840.492 1007.676 5860.434
 1011.41 5879.113 1016.781 c 5921.301 1028.91 5983.082 1062.383 6008.059
 1086.641 c 6014.609 1093.004 6017.613 1098.598 6019.438 1107.828 c 6021.414
 1117.848 6019.516 1129.629 6014.574 1137.992 c 6006.168 1152.219 5984.301
 1183.211 5978.758 1188.754 c 5971.813 1195.699 5963.598 1198.426 5950.848
 1198.016 c 5940.059 1197.664 5938.738 1197.105 5921.246 1185.477 c 5891.137
 1165.457 5869.242 1154.383 5842.738 1145.77 c 5828.887 1141.266 5826.391
 1140.641 5811.613 1137.988 c 5798.207 1135.582 5797.941 1135.566 5773.363
 1135.555 c 5751.238 1135.543 5747.461 1135.723 5737.738 1137.254 c 5716.848
 1140.539 5700.391 1146.438 5685.727 1155.895 c 5678.535 1160.535 5666.371
 1172.582 5661.621 1179.766 c 5646.445 1202.723 5644.461 1223.5 5655.387
 1244.91 c 5658.766 1251.527 5660.305 1253.547 5667.195 1260.441 c 5675.789
 1269.039 5685.395 1275.902 5697.004 1281.738 c 5714.66 1290.617 5736.113
 1297.961 5820.613 1324.047 c 5890.281 1345.551 5918.988 1355.957 5948.113
 1370.266 c 5982.637 1387.227 6006.84 1409.164 6024.48 1439.48 c 6031.891
 1452.215 6040.789 1475.539 6044.434 1491.766 c 6050.555 1519.023 6050.238
 1565.996 6043.758 1592.641 c 6036.223 1623.598 6025.91 1648.84 6011.359
 1671.926 c 6003.254 1684.785 5997.574 1691.883 5986.297 1703.234 c 5976.082
 1713.512 5970.855 1717.691 5953.625 1729.359 c 5925.465 1748.426 5885.668
 1764.258 5844.988 1772.574 c 5813.66 1778.98 5807.719 1780.48 5765.863 
1780.73 c 5746.664 1781.41 5726.563 1779.711 5721.613 1779.352 c h
6740.109 1778.969 m 6709.82 1776.902 6677.797 1772.035 6649.551 1765.203
 c 6595.875 1752.223 6566.273 1741.684 6521.859 1719.742 c 6437.793 1678.203
 6371.223 1620.617 6320.301 1545.391 c 6286.012 1494.73 6261.645 1442.148
 6244.004 1380.766 c 6239.355 1364.59 6237.137 1355.605 6232.047 1332.391
 c 6229.121 1319.027 6223.848 1282.645 6222.59 1267.141 c 6222.34 1264.047
 6221.668 1256.621 6221.098 1250.641 c 6218.988 1228.508 6218.289 1201.516
 6218.699 1158.016 c 6219.047 1121.191 6219.313 1113.652 6220.609 1103.641
 c 6225.309 1067.32 6234.105 1025.129 6244.379 989.648 c 6254.727 953.902
 6269.438 916.586 6286.211 883.543 c 6302.371 851.707 6331.867 806.898 6354.348
 780.027 c 6369.43 762 6400.91 730.328 6418.98 715.004 c 6458.219 681.73
 6511.5 649.883 6562.406 629.27 c 6587.805 618.984 6632.566 605.645 6660.234
 600.109 c 6684.305 595.301 6727.188 589.707 6753.234 587.988 c 6782.227
 586.074 6833.461 587.008 6853.359 589.816 c 6856.25 590.227 6866.035 591.43
 6875.109 592.496 c 6914.5 597.113 6942.215 602.414 6976.734 611.922 c 7004.645
 619.609 7042.703 633.207 7068.234 644.617 c 7096.98 657.461 7169.984 699.23
 7179.492 708.273 c 7186.285 714.734 7190.145 723.457 7190.945 734.152 c
 7191.855 746.289 7191.402 747.395 7165.836 795.402 c 7158.262 809.625 7146.785
 831.203 7140.336 843.348 c 7124.992 872.246 7121.805 875.805 7107.336 880.172
 c 7100.391 882.266 7091.121 881.957 7084.734 879.418 c 7081.133 877.988
 7065.375 869.414 7050.234 860.645 c 7026.57 846.941 6979.668 826.242 6951.984
 817.281 c 6935.184 811.844 6907.055 804.766 6890.109 801.711 c 6856.359
 795.629 6816.273 792.953 6782.852 794.551 c 6759.457 795.664 6746.383 797.023
 6727.734 800.273 c 6693.309 806.277 6660.055 817.117 6630.234 832.059 c
 6591.387 851.527 6567.816 868.734 6537.918 899.465 c 6514.121 923.926 6500.645
 941.977 6485.438 969.766 c 6467.492 1002.555 6454.078 1035.102 6445.406
 1066.891 c 6437.453 1096.059 6435.527 1110.055 6433.035 1156.895 c 6431.648
 1182.984 6431.648 1184.074 6433.035 1210.52 c 6435.473 1257.148 6438.418
 1277.684 6446.965 1307.641 c 6451.125 1322.223 6452.832 1327.125 6459.773
 1344.391 c 6475.813 1384.293 6494.363 1415.734 6518.289 1443.555 c 6527.508
 1454.277 6562.98 1489.836 6572.867 1498.27 c 6614.879 1534.094 6677.391
 1562.641 6731.117 1570.527 c 6761.32 1574.961 6829.406 1574.961 6862.742
 1570.527 c 6900.293 1565.535 6929.758 1558.543 6968.867 1545.352 c 7009.871
 1531.52 7033.883 1520.18 7072.285 1496.504 c 7086.652 1487.645 7089.898
 1486.52 7099.344 1487.113 c 7107.203 1487.609 7113.426 1489.559 7119.055
 1493.293 c 7123.762 1496.414 7126.227 1499.672 7131.801 1510.137 c 7134.105
 1514.469 7138.246 1522.063 7141.004 1527.012 c 7143.758 1531.961 7147.883
 1539.555 7150.172 1543.887 c 7152.461 1548.219 7157.852 1558.344 7162.156
 1566.387 c 7179.004 1597.879 7188.5 1616.117 7189.621 1619.121 c 7191.148
 1623.215 7191.27 1637.32 7189.82 1642.512 c 7187.984 1649.109 7183.828 
1656.145 7179.301 1660.336 c 7173.957 1665.281 7154.348 1678.559 7137.242
 1688.809 c 7085.125 1720.043 7018.883 1747.449 6963.527 1760.672 c 6923.449
 1770.246 6908.016 1772.863 6868.742 1776.754 c 6834.359 1780.16 6773.094
 1781.215 6740.117 1778.965 c h
7673.109 1779.316 m 7617.809 1775.57 7565.324 1759.754 7518.98 1732.875
 c 7494.219 1718.516 7476.965 1704.879 7449.73 1678.148 c 7424.301 1653.188
 7410.289 1636.984 7395.898 1615.891 c 7385.211 1600.219 7379.125 1589.781
 7370.539 1572.391 c 7350.551 1531.895 7338.375 1489.387 7333.586 1443.391
 c 7332.227 1430.332 7332.227 1353.547 7333.586 1341.016 c 7338.184 1298.641
 7349.227 1258.402 7367.402 1217.789 c 7377.738 1194.695 7398.129 1161.355
 7414.063 1141.504 c 7432.313 1118.762 7461.129 1090.543 7482.883 1074.105
 c 7508.934 1054.422 7538.418 1038.035 7571.441 1024.891 c 7599.918 1013.551
 7642.703 1004.047 7676.484 1001.555 c 7691.039 1000.48 7726.504 1001.121
 7739.859 1002.695 c 7783.945 1007.895 7828.922 1020.309 7863.609 1036.848
 c 7889.703 1049.285 7919.219 1069.168 7946.102 1092.414 c 7954.563 1099.727
 7972.879 1118.344 7980.391 1127.266 c 7997.281 1147.328 8010.141 1165.504
 8023.371 1188.016 c 8045.137 1225.059 8064.254 1278.699 8070.273 1319.641
 c 8073.477 1341.418 8073.977 1345.805 8075.098 1361.957 c 8077.332 1394.207
 8076.156 1421.324 8070.934 1458.016 c 8068.824 1472.848 8068.227 1476.082
 8065.277 1488.766 c 8056.805 1525.168 8041.27 1564.266 8021.965 1597.738
 c 8011.613 1615.695 7997.52 1635.75 7984.434 1651.141 c 7974.648 1662.648
 7945.383 1691.617 7934.109 1700.957 c 7899.004 1730.043 7835.188 1761.684
 7792.441 1771.207 c 7785.219 1772.813 7766.844 1775.738 7755.387 1777.102
 c 7733.047 1779.758 7694.813 1780.789 7673.109 1779.316 c h
7727.109 1619.23 m 7768.168 1614.41 7800.59 1601.754 7828.734 1579.563 
c 7843.91 1567.602 7858.285 1553.363 7870.059 1538.641 c 7890.047 1513.645
 7907.621 1477.09 7913.504 1448.266 c 7918.668 1422.969 7919.402 1371.02
 7914.961 1344.988 c 7910.395 1318.223 7895.668 1283.043 7878.379 1257.602
 c 7856.273 1225.063 7820.605 1194.676 7784.484 1177.605 c 7759.211 1165.66
 7745.734 1163.316 7702.359 1163.324 c 7663.695 1163.332 7651.566 1164.969
 7631.168 1172.945 c 7595.828 1186.766 7563.258 1211.379 7538.984 1242.613
 c 7511.84 1277.547 7496.234 1315.727 7491.863 1357.891 c 7490.629 1369.809
 7490.648 1412.785 7491.895 1425.016 c 7494.582 1451.375 7501.902 1476.129
 7514.738 1502.266 c 7533.973 1541.434 7558.996 1569.133 7594.645 1590.715
 c 7620.414 1606.316 7646.406 1615.438 7675.957 1619.238 c 7686.871 1620.641
 7715.137 1620.637 7727.109 1619.227 c h
4816.879 1774.508 m 4806.996 1773.246 4787.035 1768.91 4778.926 1766.262
 c 4771.102 1763.707 4756.496 1757.535 4746.941 1752.742 c 4707.785 1733.105
 4673.504 1701 4647.664 1659.766 c 4639.531 1646.789 4628.938 1625.371 4624.445
 1612.816 c 4616.176 1589.734 4612.547 1568.887 4611.258 1537.102 c 4610.832
 1526.605 4609.813 1507.551 4608.988 1494.766 c 4607.711 1474.883 4607.492
 1463.125 4607.488 1413.629 c 4607.488 1366.043 4607.215 1350.355 4605.969
 1325.504 c 4604.551 1297.266 4604.465 1286.949 4604.656 1169.641 c 4604.859
 1044.016 l 4607.398 1039.148 l 4610.695 1032.828 4618.422 1025.102 4624.746
 1021.805 c 4629.609 1019.266 l 4743.609 1019.266 l 4748.859 1021.883 l 
4755.848 1025.371 4763.004 1032.527 4766.492 1039.516 c 4769.109 1044.766
 l 4769.609 1184.641 l 4769.938 1277.121 4770.391 1327.945 4770.945 1334.641
 c 4771.406 1340.207 4772.074 1373.113 4772.426 1407.766 c 4773.238 1487.926
 4774 1496.926 4782.012 1520.629 c 4787.297 1536.266 4792.293 1545.531 4803.668
 1560.766 c 4822.898 1586.527 4846.57 1602.32 4875.234 1608.504 c 4885.656
 1610.754 4909.184 1610.957 4922.484 1608.91 c 4976.926 1600.539 5037.379
 1566.652 5077.617 1521.957 c 5098.699 1498.535 5106.766 1481.965 5110.02
 1455.391 c 5110.449 1451.883 5111.129 1429.441 5111.531 1405.516 c 5111.93
 1381.59 5112.625 1357.629 5113.07 1352.266 c 5113.59 1346 5114.055 1289.164
 5114.367 1193.266 c 5114.859 1044.016 l 5117.398 1039.148 l 5120.695 1032.828
 5128.422 1025.102 5134.746 1021.805 c 5139.609 1019.266 l 5253.641 1019.266
 l 5258.832 1021.82 l 5265.785 1025.242 5273.133 1032.594 5276.555 1039.543
 c 5279.109 1044.734 l 5279.109 1737.766 l 5276.57 1742.629 l 5273.273 1748.953
 5265.547 1756.68 5259.227 1759.977 c 5254.359 1762.516 l 5140.359 1762.516
 l 5135.227 1760.082 l 5128.246 1756.777 5120.598 1749.129 5117.293 1742.148
 c 5114.859 1737.016 l 5114.484 1716.016 l 5114.066 1692.5 5114.105 1692.68
 5108.438 1687.559 c 5102.121 1681.852 5092.707 1679.074 5087.465 1681.371
 c 5086.031 1681.996 5081.316 1685.617 5076.984 1689.41 c 5068.801 1696.582
 5056.348 1706.664 5045.633 1714.797 c 5022.008 1732.715 4983.855 1751.965
 4955.512 1760.262 c 4950.371 1761.766 4945.98 1763.113 4945.758 1763.25
 c 4945.535 1763.391 4939.953 1764.703 4933.355 1766.168 c 4919.535 1769.234
 4906.563 1771.191 4885.359 1773.406 c 4865.418 1775.484 4829.125 1776.07
 4816.879 1774.508 c h
2439.984 1762.195 m 2431.742 1759.633 2421.754 1750.98 2417.398 1742.629
 c 2414.859 1737.766 l 2414.859 1044.766 l 2417.48 1039.516 l 2420.969 1032.527
 2428.121 1025.371 2435.109 1021.883 c 2440.359 1019.266 l 2554.359 1019.266
 l 2559.227 1021.805 l 2565.551 1025.102 2573.277 1032.828 2576.57 1039.148
 c 2579.105 1044.016 l 2579.484 1063.516 l 2579.898 1084.945 2579.953 1085.211
 2584.859 1089.91 c 2589.105 1093.98 2595.512 1096.48 2601.75 1096.5 c 2607.137
 1096.516 l 2619.75 1084.117 l 2639.742 1064.465 2648.723 1056.992 2666.465
 1045.234 c 2685.637 1032.527 2707.363 1022.379 2728.59 1016.219 c 2739.652
 1013.008 2762 1008.551 2775.215 1006.922 c 2784.609 1005.766 2811.742 1005.945
 2821.41 1007.23 c 2851.316 1011.203 2872.906 1016.09 2891.629 1023.129 
c 2917.094 1032.699 2932.473 1042.422 2952.258 1061.441 c 2966.789 1075.414
 2980.344 1092.508 2991.563 1111.008 c 2994.695 1116.176 2997.293 1119.563
 2998.887 1120.563 c 3006 1125.02 3015.145 1126.449 3022.984 1124.328 c 
3029.379 1122.598 3030.555 1121.691 3037.703 1113.016 c 3064.219 1080.816
 3099.961 1050.727 3130.16 1035.172 c 3153.246 1023.281 3177.133 1015.809
 3209.484 1010.363 c 3236.645 1005.789 3243.191 1005.191 3261.574 1005.598
 c 3279.832 1006 3286.738 1006.887 3306.828 1011.41 c 3321.207 1014.645 
3332.238 1018.188 3343 1023.023 c 3388.082 1043.277 3422.598 1077.902 3448.043
 1128.391 c 3454.969 1142.137 3458.844 1151.84 3463.32 1166.641 c 3467.977
 1182.035 3468.641 1184.863 3471.141 1200.016 c 3475.078 1223.867 3476.441
 1240.004 3476.488 1263.391 c 3476.488 1269.785 3477.176 1287.672 3477.984
 1303.141 c 3479.352 1329.207 3479.461 1342.301 3479.473 1481.988 c 3479.5
 1632.707 l 3481.414 1663.113 l 3482.91 1686.887 3483.277 1698.34 3483.102
 1715.641 c 3482.879 1737.766 l 3480.348 1742.613 l 3476.867 1749.285 3470.121
 1756.105 3463.504 1759.641 c 3458.129 1762.516 l 3343.379 1762.516 l 3338.242
 1760.082 l 3331.262 1756.777 3323.613 1749.129 3320.309 1742.148 c 3317.879
 1737.016 l 3317.426 1637.266 l 3317.066 1557.996 3316.723 1533.512 3315.758
 1518.016 c 3314.785 1502.363 3314.539 1484.016 3314.523 1425.066 c 3314.496
 1338.078 3313.945 1322.305 3309.16 1272.016 c 3307.012 1249.445 3300.578
 1228.402 3291.578 1214.484 c 3269.992 1181.109 3233.148 1163.492 3193.004
 1167.348 c 3177.984 1168.789 3167.098 1170.93 3156.254 1174.578 c 3133.383
 1182.27 3115.609 1193.496 3095.375 1213.035 c 3083.648 1224.363 3076.074
 1233.258 3064.449 1249.371 c 3045.711 1275.34 3036.988 1293.094 3033.059
 1313.266 c 3031.453 1321.516 l 3031.039 1529.641 l 3030.629 1737.766 l 
3028.09 1742.633 l 3024.789 1748.953 3017.066 1756.68 3010.742 1759.977 
c 3005.879 1762.516 l 2891.879 1762.516 l 2886.742 1760.082 l 2879.762 1756.777
 2872.113 1749.129 2868.809 1742.148 c 2866.379 1737.016 l 2865.941 1576.891
 l 2865.57 1440.398 2865.324 1413.887 2864.273 1397.266 c 2863.594 1386.469
 2863.027 1367.055 2863.004 1353.766 c 2862.961 1329.742 2861.523 1296.375
 2860.012 1284.391 c 2857.926 1267.855 2855.336 1251.359 2854.012 1246.199
 c 2851.68 1237.129 2846.137 1222.633 2842.617 1216.434 c 2831.738 1197.25
 2810.836 1180.426 2788.379 1172.773 c 2775.645 1168.434 2767.297 1167.09
 2753.129 1167.09 c 2728.945 1167.09 2708.047 1172.086 2685.988 1183.133
 c 2679.383 1186.441 2666.148 1195.18 2659.004 1200.949 c 2637.953 1217.941
 2615.602 1244.027 2600.668 1269.016 c 2589.363 1287.938 2584.926 1298.895
 2581.57 1316.188 c 2579.957 1324.516 l 2579.129 1737.766 l 2576.59 1742.633
 l 2575.105 1745.473 2571.98 1749.566 2569.078 1752.469 c 2566.18 1755.371
 2562.082 1758.496 2559.242 1759.977 c 2554.379 1762.516 l 2498.129 1762.648
 l 2467.191 1762.719 2441.035 1762.516 2440.004 1762.195 c h
8293.484 1761.063 m 8284.73 1757.449 8277.176 1750.316 8273.176 1741.891
 c 8270.859 1737.016 l 8270.859 1044.016 l 8273.398 1039.148 l 8276.699 
1032.828 8284.422 1025.102 8290.746 1021.805 c 8295.609 1019.266 l 8350.094
 1019.059 l 8403.816 1018.855 8404.637 1018.875 8408.777 1020.422 c 8417.59
 1023.719 8426.867 1033.094 8430.324 1042.195 c 8431.727 1045.887 8431.758
 1053.211 8431.742 1390.559 c 8431.715 1727.805 8431.695 1735.234 8430.293
 1738.918 c 8426.898 1747.855 8419.676 1755.727 8410.922 1760.039 c 8405.895
 1762.516 l 8351.879 1762.691 l 8297.859 1762.871 l h
8682.969 1761.156 m 8674.09 1757.488 8666.82 1750.672 8662.563 1742.027
 c 8660.109 1737.047 l 8660.109 1044.766 l 8662.543 1039.629 l 8665.848 
1032.648 8673.496 1025.004 8680.477 1021.695 c 8685.609 1019.266 l 8798.859
 1019.266 l 8804.109 1021.883 l 8811.098 1025.371 8818.254 1032.527 8821.742
 1039.516 c 8824.359 1044.766 l 8824.734 1068.016 l 8825.156 1094.043 8825.059
 1093.547 8830.785 1098.719 c 8834.242 1101.844 8840.059 1104.754 8844.422
 1105.547 c 8850.316 1106.617 8851.664 1105.828 8868.09 1091.754 c 8887.918
 1074.754 8892.813 1070.891 8905.746 1062.008 c 8937.883 1039.938 8971.359
 1024.855 9007.203 1016.293 c 9023.664 1012.363 9031.523 1011.051 9056.859
 1007.988 c 9069.008 1006.523 9102.801 1006.531 9113.484 1008.004 c 9117.816
 1008.602 9125.242 1009.605 9129.984 1010.234 c 9142.781 1011.93 9153.77
 1014.211 9166.359 1017.785 c 9201.484 1027.762 9226.902 1043.035 9254.902
 1070.992 c 9274.727 1090.785 9288.418 1108.523 9300.652 1130.266 c 9303.438
 1135.215 9307.273 1141.965 9309.172 1145.266 c 9311.074 1148.563 9313.129
 1152.16 9313.742 1153.254 c 9314.359 1154.352 9315.863 1156.871 9317.09
 1158.855 c 9320.238 1163.957 9326.832 1183 9328.219 1191.016 c 9328.863
 1194.727 9329.93 1201.813 9330.586 1206.766 c 9332.883 1224.047 9333.293
 1227.047 9334.031 1231.891 c 9336.344 1247.066 9336.465 1259.609 9336.754
 1509.965 c 9337.047 1762.91 l 9268.203 1762.715 l 9199.359 1762.516 l 9194.227
 1760.082 l 9187.246 1756.777 9179.598 1749.129 9176.293 1742.148 c 9173.859
 1737.016 l 9173.422 1536.766 l 9172.93 1312.602 9173.086 1319.078 9167.426
 1288.27 c 9162.113 1259.359 9150.246 1233.328 9133.434 1213.715 c 9119.754
 1197.754 9101.766 1186.242 9078.777 1178.73 c 9061.746 1173.168 9058.191
 1172.543 9041.109 1172.109 c 9023.031 1171.652 9015.273 1172.742 8994.996
 1178.605 c 8962.77 1187.918 8937.852 1199.926 8911.125 1219.027 c 8892.559
 1232.297 8875.305 1247.898 8860.82 1264.516 c 8839.25 1289.254 8831.32 
1302.969 8826.766 1323.391 c 8825.18 1330.516 l 8824.359 1737.047 l 8821.797
 1742.281 l 8818.355 1749.293 8811.141 1756.508 8804.129 1759.949 c 8798.895
 1762.516 l 8743.004 1762.691 l 8687.109 1762.867 l h
1092.582 1693.703 m 1092.387 1693.188 1092.313 1554.559 1092.418 1385.641
 c 1092.609 1078.516 l 1096.277 1078.281 l 1102.738 1078.93 1104.113 1079.027
 1112.043 1080.543 c 1120.219 1082.566 1120.969 1082.5 1130.109 1085.176
 c 1144.941 1089.613 1142.367 1089.16 1152.09 1093.141 c 1153.727 1093.141
 1181.434 1106.961 1186.039 1110.078 c 1188.383 1111.543 1190.324 1112.289
 1194.742 1115.574 c 1198.727 1118.332 1201.383 1119.633 1204.133 1122.156
 c 1206.234 1124.172 l 1206.234 1648.586 l 1203.391 1651.363 l 1200.113 
1653.707 1199.93 1654.063 1193.859 1657.891 c 1188.941 1661.238 1188.098
 1661.336 1186.039 1662.699 c 1170.566 1672.629 1160.242 1675.77 1145.859
 1681.891 c 1132.227 1686.258 1130.113 1686.922 1116.609 1690.141 c 1110.969
 1691.184 1105.105 1692.438 1100.109 1693.141 c 1094.855 1694.098 1093.215
 1695.262 1092.582 1693.703 c h
993.633 1689.422 m 985.102 1687.051 976.484 1684.609 968.109 1681.891 c
 962.004 1679.664 961.141 1679.324 952.449 1675.141 c 942.43 1670.465 941.48
 1670.094 932.133 1664.641 c 926.988 1661.148 920.852 1657.605 916.359 1654.141
 c 911.582 1650.465 908.723 1648 905.859 1645.141 c 901.75 1641.016 898.063
 1637.641 897.664 1637.641 c 894.508 1634.398 894.176 1633.887 891.234 1630.516
 c 889.742 1629.164 889.734 1628.203 889.734 1386.504 c 889.734 1143.848
 l 891.707 1141.793 l 898.398 1135.02 898.844 1134.574 906.172 1127.328 
c 911.207 1122.738 911.375 1122.613 916.359 1118.641 c 919.539 1116.324 
922.906 1114.195 926.109 1111.891 c 929.324 1109.504 929.453 1109.41 935.457
 1105.551 c 942.977 1101.426 943.16 1101.328 953.109 1096.891 c 957.953 
1094.527 958.102 1094.457 965.109 1091.641 c 970.012 1089.836 970.512 1089.563
 977.859 1087.141 c 980.215 1086.41 980.473 1086.336 983.109 1085.641 c 
987.242 1084.453 988.359 1084.141 988.359 1084.141 c 995.09 1082.262 1000.164
 1080.883 1001.207 1081.27 c 1003.359 1081.516 l 1003.359 1689.766 l 998.738
 1689.988 l 997.066 1689.988 995.875 1689.883 993.633 1689.422 c h
8341.332 923.555 m 8320.863 921.402 8303.594 913.137 8289.258 898.629 c
 8280.324 889.594 8276.441 884.344 8271.98 875.266 c 8265.145 861.359 8262.523
 846.836 8263.211 826.688 c 8264.195 797.855 8272.316 779.035 8291.973 760.051
 c 8303.102 749.305 8312.836 743.488 8326.363 739.504 c 8355.543 730.91 
8391.195 740.395 8413.297 762.629 c 8424.414 773.816 8432.762 789.188 8435.488
 803.496 c 8441.969 837.516 8437.672 866.148 8422.992 886.719 c 8418.102
 893.574 8406.109 905.352 8399.668 909.629 c 8388.063 917.332 8374.59 922.051
 8359.699 923.617 c 8351.711 924.457 8349.848 924.453 8341.332 923.555 c
 h
8341.332 923.555 m f
Q Q
showpage
%%Trailer
end
%%EOF
