%!PS-Adobe-3.0 EPSF-3.0
%%Creator: cairo 1.16.0 (https://cairographics.org)
%%CreationDate: Tue Mar 30 19:15:57 2021
%%Pages: 1
%%DocumentData: Clean7Bit
%%LanguageLevel: 2
%%BoundingBox: 466 16 2312 2762
%%EndComments
%%BeginProlog
50 dict begin
/q { gsave } bind def
/Q { grestore } bind def
/cm { 6 array astore concat } bind def
/w { setlinewidth } bind def
/J { setlinecap } bind def
/j { setlinejoin } bind def
/M { setmiterlimit } bind def
/d { setdash } bind def
/m { moveto } bind def
/l { lineto } bind def
/c { curveto } bind def
/h { closepath } bind def
/re { exch dup neg 3 1 roll 5 3 roll moveto 0 rlineto
      0 exch rlineto 0 rlineto closepath } bind def
/S { stroke } bind def
/f { fill } bind def
/f* { eofill } bind def
/n { newpath } bind def
/W { clip } bind def
/W* { eoclip } bind def
/BT { } bind def
/ET { } bind def
/BDC { mark 3 1 roll /BDC pdfmark } bind def
/EMC { mark /EMC pdfmark } bind def
/cairo_store_point { /cairo_point_y exch def /cairo_point_x exch def } def
/Tj { show currentpoint cairo_store_point } bind def
/TJ {
  {
    dup
    type /stringtype eq
    { show } { -0.001 mul 0 cairo_font_matrix dtransform rmoveto } ifelse
  } forall
  currentpoint cairo_store_point
} bind def
/cairo_selectfont { cairo_font_matrix aload pop pop pop 0 0 6 array astore
    cairo_font exch selectfont cairo_point_x cairo_point_y moveto } bind def
/Tf { pop /cairo_font exch def /cairo_font_matrix where
      { pop cairo_selectfont } if } bind def
/Td { matrix translate cairo_font_matrix matrix concatmatrix dup
      /cairo_font_matrix exch def dup 4 get exch 5 get cairo_store_point
      /cairo_font where { pop cairo_selectfont } if } bind def
/Tm { 2 copy 8 2 roll 6 array astore /cairo_font_matrix exch def
      cairo_store_point /cairo_font where { pop cairo_selectfont } if } bind def
/g { setgray } bind def
/rg { setrgbcolor } bind def
/d1 { setcachedevice } bind def
/cairo_data_source {
  CairoDataIndex CairoData length lt
    { CairoData CairoDataIndex get /CairoDataIndex CairoDataIndex 1 add def }
    { () } ifelse
} def
/cairo_flush_ascii85_file { cairo_ascii85_file status { cairo_ascii85_file flushfile } if } def
/cairo_image { image cairo_flush_ascii85_file } def
/cairo_imagemask { imagemask cairo_flush_ascii85_file } def
%%EndProlog
%%BeginSetup
%%EndSetup
%%Page: 1 1
%%BeginPageSetup
%%PageBoundingBox: 466 16 2312 2762
%%EndPageSetup
q 466 16 1846 2746 rectclip
1 0 0 -1 0 2778 cm q
0 0.290196 0.180392 rg
1338.453 2672.602 m 1338.453 2583.727 l 1334.371 2583.727 l 1331.027 2583.395
 1328.93 2583.086 1324.578 2582.227 c 1309.625 2579.832 1308.215 2579.621
 1293.078 2576.227 c 1275.809 2572.883 1256.344 2568.391 1242.828 2564.977
 c 1228.5 2561.527 1219.141 2558.742 1211.328 2556.727 c 1202.215 2554.082
 1192.293 2551.457 1182.824 2548.477 c 1170.379 2544.031 1167.742 2543.23
 1163.723 2541.727 c 1158.383 2539.996 1157.645 2539.688 1152.828 2537.977
 c 1143.43 2534.359 1141.977 2533.91 1131.828 2530.477 c 1128.691 2529.246
 1126.824 2528.75 1121.328 2526.727 c 1112.434 2523.164 1111.867 2522.91
 1103.328 2519.227 c 1089.676 2513.379 1088.633 2512.848 1076.328 2507.227
 c 1058.84 2499.66 1058.32 2499.422 1034.84 2487.555 c 1034.145 2486.969
 1030.285 2484.879 1026.266 2482.91 c 1020.203 2479.824 1013.879 2475.977
 1008.828 2473.477 c 1002.797 2470.266 996.262 2466.867 990.828 2463.727
 c 978.988 2457.047 977.953 2456.176 966.824 2449.477 c 952.348 2440.004
 951.156 2439.5 933.078 2427.727 c 920.789 2419.434 913.039 2414.094 905.328
 2408.977 c 887.512 2395.402 887.156 2395.035 875.328 2386.477 c 865.242
 2379.301 864.617 2378.785 857.328 2372.977 c 852.035 2368.531 846.07 2364.672
 841.574 2360.227 c 832.953 2353.117 828.988 2349.539 822.078 2343.727 c
 818.168 2340.336 815.082 2337.965 811.578 2334.727 c 807.223 2330.727 802.855
 2327.602 798.828 2323.477 c 791.441 2316.684 783.586 2309.734 777.824 2303.977
 c 758.195 2285.449 756.594 2283.461 738.449 2264.602 c 734.328 2260.492
 730.953 2256.777 730.953 2256.352 c 722.152 2246.895 713.832 2236.836 705.453
 2227.102 c 698.727 2219.152 698.578 2218.883 691.953 2209.852 c 688.836
 2205.703 686.082 2202.527 682.953 2198.602 c 673.645 2186.266 663.98 2171.797
 655.953 2160.328 c 651.457 2154.633 650.352 2152.543 643.949 2141.602 c
 641.465 2137.27 635.172 2127.789 630.449 2119.102 c 628.359 2115.336 625.484
 2111.59 623.703 2107.852 c 622.879 2106.047 621.902 2104.379 621.535 2104.152
 c 621.164 2103.922 618.574 2099.094 615.773 2093.418 c 612.977 2087.746
 610.211 2082.535 609.625 2081.84 c 608.254 2080.215 588.453 2040.645 588.453
 2039.527 c 588.453 2039.063 587.102 2036.059 585.449 2032.852 c 583.801
 2029.645 582.453 2026.613 582.453 2026.117 c 582.453 2025.621 580.766 2021.902
 578.703 2017.852 c 576.641 2013.801 574.953 2010.082 574.953 2009.586 c
 574.953 2009.09 573.602 2006.059 571.949 2002.852 c 566.68 1990.141 566.352
 1988.938 560.703 1974.352 c 560.289 1974.098 559.953 1973.242 559.953 1972.453
 c 558.07 1968.309 556.965 1965.66 553.199 1954.852 c 549.602 1945.512 547.453
 1938.047 544.199 1929.352 c 540.906 1919.086 540.594 1918.832 535.949 1903.852
 c 527.383 1878.078 519.648 1847.133 514.953 1830.352 c 510.184 1813.277
 506.973 1794.754 502.953 1777.852 c 501.152 1769.918 500.754 1769.164 499.949
 1764.352 c 498.098 1757.359 498 1756.871 496.953 1749.352 c 494.656 1737.914
 494.438 1737.777 492.453 1723.852 c 491.434 1718.926 490.969 1718.207 490.949
 1715.602 c 490.766 1712.59 490.027 1711.285 489.453 1707.352 c 488.613 
1703.227 488.531 1702.766 487.953 1698.352 c 486.359 1688.594 486.277 1687.973
 484.953 1678.852 c 481.863 1659.918 481.859 1659.156 480.453 1645.852 c
 479.762 1640.512 479.531 1639.902 478.953 1634.602 c 477.246 1621.391 476.918
 1620.641 475.953 1608.352 c 475.305 1601.574 475.215 1601.176 474.453 1593.352
 c 473.336 1583.574 473.434 1582.895 472.949 1578.352 c 472.098 1569.223
 471.965 1568.297 470.703 1555.852 c 469.172 1543.191 469.027 1542.41 467.891
 1522.758 c 466.754 1510.145 466.746 1497.48 466.012 1486.59 c 466.137 1452.965
 465.953 1307.879 466.012 1304.863 c 466.168 1302.648 466.156 1298.484 466.953
 1292.496 c 467.711 1280.387 467.691 1279.797 468.449 1268.602 c 469.219
 1255.152 469.281 1254.336 469.953 1245.352 c 471.078 1231.445 471.309 1230.09
 472.949 1211.602 c 473.805 1203.898 473.969 1200.895 474.453 1195.852 c
 475.172 1188.734 475.094 1187.621 475.953 1180.102 c 477.051 1171.637 477.105
 1171.348 477.449 1166.602 c 479.027 1154.191 479.168 1151.438 480.453 1143.352
 c 481.723 1134.039 482.078 1130.656 483.453 1120.852 c 484.734 1111.77 
484.934 1111.105 486.449 1099.852 c 487.602 1092.473 487.781 1092.047 489.453
 1081.102 c 489.953 1078.004 490.371 1076.16 490.949 1072.852 c 492.262 
1065.336 493.023 1062.281 493.953 1055.602 c 495.027 1049.188 495.398 1047.965
 496.953 1038.352 c 497.543 1035.168 497.773 1034.258 498.453 1030.852 c
 499.688 1024.629 500.32 1022.199 501.453 1015.852 c 502.598 1010.375 503.34
 1007.504 504.449 1002.352 c 505.469 997.008 506.008 994.336 507.453 988.852
 c 508.273 985.688 508.402 985.02 508.949 982.102 c 509.574 979.07 509.84
 977.902 510.453 975.352 c 511.141 972.254 511.469 971.121 511.953 968.602
 c 512.617 966.109 512.902 965.141 513.449 962.602 c 514.535 958.141 515.473
 954.648 516.453 950.602 c 517.156 948.313 517.531 947.449 517.949 945.352
 c 518.699 943.375 518.508 943.113 519.453 940.102 c 520.602 935.117 521.988
 929.98 523.203 925.102 c 524.973 918.742 524.902 918.414 526.199 914.602
 c 527.867 908.32 527.754 908.191 529.203 904.102 c 532.168 895.426 532.535
 895.105 534.453 886.852 c 536.707 879.5 539.148 872.582 540.449 868.102
 c 542.75 861.348 543.199 859.746 544.949 853.852 c 546.293 849.809 546.59
 849.434 547.953 844.852 c 548.641 842.02 549.973 839.258 550.953 836.602
 c 553.41 829.969 553.551 829.41 555.453 824.602 c 559.566 814.309 559.711
 813.238 562.949 805.102 c 568.133 791.719 569.332 788 574.953 775.102 c
 577.184 770.32 579.133 765.742 580.949 761.602 c 583.184 756.488 584.934
 752.242 586.953 748.102 c 595.043 731.059 603.191 711.809 612.625 696.113
 c 613.211 695.418 615.641 690.883 618.023 686.035 c 620.402 681.188 622.656
 677.031 623.027 676.805 c 623.402 676.574 624.379 674.906 625.199 673.102
 c 630.602 664.398 631.453 663.016 635.703 655.102 c 641.121 646.457 641.43
 646.285 644.703 640.102 c 646.359 637.27 646.531 637.078 649.141 632.742
 c 653.484 626.145 653.547 625.926 655.953 622.852 c 662.449 613.313 662.457
 612.883 667.953 604.852 c 674.883 595.207 674.859 595.055 682.203 584.602
 c 687.973 577.242 688.148 576.824 692.699 571.102 c 698.605 563.75 698.828
 563.063 703.203 557.602 c 706.152 553.801 706.406 553.199 708.453 550.852
 c 717.254 540.523 720.484 536.813 728.699 527.602 c 733.391 523.074 737.551
 517.246 741.453 513.352 c 744.418 510.336 744.867 509.887 747.449 506.613
 c 761.578 491.375 772.082 482.262 788.328 466.477 c 795.398 459.887 798.223
 457.621 804.078 452.227 c 808.898 447.977 809.863 447.301 815.328 442.477
 c 821.805 436.648 829.348 430.996 834.828 425.977 c 842.332 419.512 845.742
 416.965 852.828 410.977 c 855.383 409.063 856.555 408.199 858.824 406.477
 c 861.449 404.563 862.754 403.633 864.828 401.977 c 867.516 399.996 868.688
 399.266 870.828 397.477 c 876.063 393.422 878.211 392.078 882.828 388.477
 c 888.063 384.688 889.613 383.344 894.824 379.477 c 900.129 375.621 902.477
 374.078 906.828 370.477 c 911.438 367.133 912.176 366.871 916.578 363.727
 c 921.266 360.852 921.742 360.496 925.578 357.727 c 929.207 355.289 930.43
 354.527 933.828 352.477 c 939.344 349.066 940.578 348.352 946.23 344.563
 c 950.434 341.75 955.043 339.148 958.574 336.727 c 963.43 333.723 964.793
 332.648 971.324 328.477 c 974.57 326.422 976.738 325.348 979.172 323.637
 c 982.586 321.781 984.805 320.539 990.883 317.199 c 998.027 313.59 1005.758
 308.977 1011.824 305.977 c 1016.973 303.438 1021.355 301.082 1021.566 300.742
 c 1021.777 300.406 1025.914 298.18 1030.762 295.797 c 1035.609 293.414 
1035.445 293.434 1040.852 290.387 c 1046.656 287.188 1051.004 285.363 1056.824
 282.727 c 1061.398 280.563 1065.406 279.262 1068.828 277.477 c 1072.859
 275.512 1075.785 274.422 1080.828 272.227 c 1085.199 270.262 1088.941 268.633
 1092.824 266.977 c 1097.59 264.945 1101.445 263.457 1104.828 261.727 c 
1109.754 259.473 1111.441 258.773 1115.324 257.227 c 1117.613 256.496 1120.766
 255.113 1123.578 254.227 c 1131.344 251.383 1131.711 250.934 1140.078 248.227
 c 1144.918 246.676 1145.41 246.348 1149.078 245.227 c 1153.309 244.07 1157.652
 242.441 1160.324 241.477 c 1166.984 239.117 1167.766 238.469 1174.574 236.227
 c 1178.953 234.676 1179.578 234.48 1183.574 233.227 c 1188.977 231.516 
1189.555 231.258 1193.328 230.227 c 1199.352 228.707 1199.957 228.484 1205.324
 227.227 c 1210.863 225.797 1211.238 225.609 1217.328 224.227 c 1224.426
 222.324 1225.004 222.145 1233.828 219.727 c 1237.59 218.645 1237.98 218.637
 1242.828 217.477 c 1246.672 216.465 1248.621 215.914 1251.828 215.227 c
 1258.051 213.641 1258.789 213.223 1263.824 212.227 c 1271.793 210.438 1272.699
 210.199 1278.828 209.227 c 1285.945 207.836 1286.723 207.563 1294.578 206.227
 c 1303.34 204.531 1304.031 204.441 1311.078 203.227 c 1320.73 201.648 1323.172
 200.941 1329.078 200.227 c 1333.273 199.41 1333.926 199.191 1338.453 198.727
 c 1338.453 16.477 l 1452.453 16.477 l 1452.453 189.727 l 1501.363 189.715
 1501.977 189.719 1541.082 189.902 c 1540.949 103.852 l 1540.949 16.477 
l 1654.949 16.477 l 1654.949 108.953 l 1654.949 179.875 1655.16 201.637 
1655.852 202.328 c 1656.348 202.82 1658.52 203.227 1660.68 203.227 c 1664.582
 203.734 1666.156 204.102 1670.324 204.727 c 1674.797 205.523 1675.594 205.645
 1679.324 206.227 c 1682.441 206.738 1683.57 207.102 1686.824 207.727 c 
1690.598 208.52 1690.977 208.602 1694.324 209.227 c 1698.598 210.246 1699.176
 210.215 1705.574 211.477 c 1711.25 212.742 1714.926 213.676 1722.824 215.227
 c 1729.164 216.445 1733.5 217.445 1737.074 218.227 c 1741.914 219.496 1743.418
 220.102 1748.324 221.227 c 1751.992 222.262 1755.625 223.523 1758.824 224.227
 c 1764.023 225.441 1765.387 226.07 1770.074 227.227 c 1774.73 228.375 1774.344
 228.332 1780.574 230.227 c 1788.598 232.285 1788.797 232.359 1797.074 234.727
 c 1801.434 235.824 1803.832 236.348 1810.574 238.477 c 1816.313 240.262
 1818.105 240.926 1821.473 242.227 c 1826.449 243.98 1828.664 245.008 1833.473
 246.727 c 1837.906 248.422 1838.371 248.555 1841.68 249.727 c 1844.738 
250.98 1846.672 251.445 1849.574 252.727 c 1855.449 254.723 1857.727 255.855
 1865.68 258.727 c 1871.813 260.957 1873.031 261.516 1882.18 264.727 c 1886.18
 266.445 1889.918 267.594 1893.074 269.227 c 1898.715 271.91 1904.953 274.395
 1909.574 276.727 c 1922.012 282.168 1927.184 284.566 1940.195 290.781 c
 1942.414 291.836 1944.711 293.016 1948.051 294.887 c 1951.094 296.559 1952.871
 297.539 1958.141 300.297 c 1969.355 305.898 1980.543 313.133 1990.574 318.727
 c 1999.297 323.859 2000.383 324.582 2007 328.441 c 2010.582 330.629 2011.059
 330.906 2015.324 333.727 c 2023.66 339.492 2032.906 344.387 2040.824 350.227
 c 2045.023 353.051 2046.063 353.664 2049.824 356.227 c 2054.305 359.191
 2055.063 359.57 2058.824 362.227 c 2063.426 365.258 2065.184 366.438 2068.574
 368.977 c 2073.996 372.871 2074.637 373.172 2079.074 376.477 c 2084.254
 380.52 2084.973 380.895 2090.324 384.727 c 2094.266 387.797 2095.188 388.426
 2098.574 390.727 c 2102.184 393.547 2103.609 394.559 2107.574 397.477 c
 2109.785 399.5 2112.508 400.883 2114.324 402.727 c 2117.035 405.082 2119.336
 406.672 2121.824 408.727 c 2127.492 413.277 2130.828 415.824 2137.574 421.477
 c 2146.277 428.738 2147.879 429.965 2155.574 436.477 c 2160.047 440.477
 2164.438 444.207 2168.324 447.727 c 2173.668 452.496 2177.723 455.992 2181.824
 459.727 c 2184.074 461.996 2184.945 462.586 2188.555 465.727 c 2213.473
 488.563 2239.797 517.035 2261.699 539.602 c 2267.566 545.637 2271.41 550.402
 2276.699 556.102 c 2280.734 560.586 2283.418 563.867 2286.449 567.352 c
 2290.031 571.539 2292.164 574.203 2295.449 577.852 c 2299.098 581.914 2299.813
 582.988 2303.699 587.602 c 2306.258 590.734 2307.203 592.105 2309.699 595.102
 c 2313.078 598.336 2312.684 600.316 2307.66 605.391 c 2302.703 609.773 
2297.414 614.137 2293.574 617.977 c 2285.496 625.289 2281.906 628.52 2275.574
 634.477 c 2268.855 640.711 2263.438 645.535 2257.574 650.977 c 2251.043
 656.977 2244.875 662.41 2239.574 667.477 c 2232.668 673.805 2227.391 678.582
 2221.574 683.977 c 2213.402 691.57 2210.281 694.285 2203.574 700.477 c 
2195.074 708.258 2192.047 710.926 2185.574 716.977 c 2179.184 723.07 2174.328
 727.145 2167.574 733.477 c 2154.848 745.453 2141.391 757.203 2130.074 767.977
 c 2123.824 773.883 2117.281 779.504 2112.074 784.477 c 2105.918 790.289
 2099.375 796.004 2094.074 800.977 c 2084.871 809.32 2082.266 811.66 2076.074
 817.477 c 2066.684 826.43 2065.672 827.035 2058.074 833.977 c 2050.746 
840.68 2045.703 845.223 2040.074 850.477 c 2032.793 857.508 2032.438 857.738
 2022.074 866.977 c 2005.262 882.82 1997.813 888.98 1984.574 901.477 c 1978.301
 907.773 1975.887 909.727 1974.391 909.727 c 1972.488 909.727 1970.465 907.645
 1969.949 906.246 c 1969.949 906.246 1969.219 905.102 1967.699 903.352 c
 1965.676 900.859 1964.578 899.168 1962.449 896.602 c 1959.395 892.816 1958.504
 891.734 1956.449 889.102 c 1953.816 886.066 1953.207 885.125 1950.449 881.602
 c 1948.238 878.941 1946.691 876.547 1944.449 874.102 c 1940.883 869.754
 1937.219 865.367 1933.949 862.102 c 1921.586 848.496 1917.051 844.34 1909.949
 835.848 c 1903.238 827.402 1893.547 820.199 1887.074 813.727 c 1882.012
 808.18 1875.121 803.281 1870.574 798.727 c 1865.723 794.207 1864.836 793.773
 1860.824 790.477 c 1857.82 787.957 1857.316 787.734 1854.074 785.227 c 
1850.93 782.512 1849.203 781.41 1847.324 779.977 c 1843.824 777.324 1842.723
 776.57 1840.574 774.727 c 1838.965 773.078 1836.813 771.727 1836.813 771.727
 c 1836.191 771.328 1835.277 770.648 1833.824 769.477 c 1830.582 767.09 
1830.383 766.973 1828.145 765.285 c 1823.633 762.047 1823.199 761.863 1819.23
 759.387 c 1814.938 756.602 1814.434 756.383 1810.574 753.727 c 1808.695
 752.547 1808.027 752.121 1806.418 751.063 c 1804.863 749.961 1804.113 749.461
 1802.324 748.477 c 1799.027 746.48 1798.574 745.984 1796.352 744.727 c 
1794.488 743.148 1793.203 742.688 1790 740.66 c 1789.516 740.074 1783.145
 736.641 1775.848 733.031 c 1768.582 729.254 1765.055 727.574 1761.313 725.398
 c 1759.602 723.891 1741.098 714.906 1739.934 714.727 c 1739.934 714.727
 1738.027 713.91 1736.324 713.227 c 1733.305 711.777 1730.215 710.672 1727.324
 709.477 c 1720.457 706.477 1712.336 703.266 1707.074 701.227 c 1701.504
 699.098 1701.074 698.484 1695.074 696.727 c 1687.137 694.113 1678.594 690.773
 1672.574 689.227 c 1666.516 687.188 1663.855 686.309 1657.215 684.57 c 
1654.957 684.238 l 1654.77 754.793 l 1654.578 825.352 l 1652.426 825.598
 l 1649.266 825.043 1648.859 824.902 1646.223 824.227 c 1641.797 823.434
 1641.258 823.117 1633.578 821.227 c 1621.211 817.828 1620.57 817.699 1606.578
 815.227 c 1602.996 814.48 1601.82 814.023 1599.078 813.727 c 1591.996 812.703
 1588.492 812.23 1578.078 810.727 c 1566.25 808.875 1554.746 807.199 1544.703
 806.086 c 1541.328 805.852 l 1540.945 665.227 l 1536.867 665.227 l 1534.625
 665.227 1532.582 664.891 1532.328 664.477 c 1531.594 663.289 1457.059 663.469
 1454.488 664.664 c 1452.473 665.602 l 1452.277 736.477 l 1452.078 807.352
 l 1447.203 807.578 l 1443.336 808.078 1442.242 808.281 1436.973 809.227
 c 1431.973 809.91 1432.133 810.215 1428.078 810.727 c 1421.688 811.453 
1416.648 812.727 1410.078 813.727 c 1402.32 814.855 1394.68 816.398 1387.578
 818.227 c 1382.246 819.832 1376.324 821.129 1371.078 822.727 c 1367.098
 823.742 1363.27 824.695 1359.828 825.727 c 1356.105 826.738 1352.555 827.883
 1349.328 828.727 c 1346.895 829.441 1344.453 830.191 1342.293 831.094 c
 1341.133 831.473 1340.352 831.75 1339.68 831.492 c 1338.559 831.063 1338.453
 824.672 1338.453 755.625 c 1338.453 709.012 1338.188 680.227 1337.75 680.227
 c 1335.727 680.82 1335.285 680.754 1332.895 681.527 c 1327.059 682.871 
1324.609 683.852 1321.578 684.727 c 1312.809 686.902 1304.16 690.16 1296.078
 692.227 c 1292.754 693.277 1290 694.055 1287.078 695.227 c 1284.242 696.32
 1282.238 697.227 1279.578 698.227 c 1275.531 699.723 1271.461 701.09 1267.578
 702.727 c 1260.516 705.234 1253.816 707.43 1248.078 710.227 c 1243.801 
712.352 1240.145 713.754 1235.105 716.387 c 1234.207 716.91 1225.832 721.434
 1216.055 726.285 c 1205.234 731.086 1194.41 738.035 1185.078 743.977 c 
1182.551 745.828 1181.375 746.418 1176.828 749.227 c 1170.508 753.621 1164.102
 756.992 1158.078 761.977 c 1149.504 768.961 1139.82 776.496 1134.078 781.477
 c 1119.59 796.227 1102.34 809.016 1086.453 828.391 c 1080.555 835.898 1079.938
 836.652 1071.453 847.102 c 1069.387 849.5 1067.906 851.586 1065.453 854.602
 c 1062.051 858.867 1060.594 860.617 1056.453 866.602 c 1053.07 871.316 
1049.652 876.586 1047.453 880.102 c 1043.617 885.91 1043.266 886.406 1039.617
 892.445 c 1036.73 896.793 1033.582 901.348 1031.227 905.363 c 1031.227 
905.363 1027.035 912.703 1023.012 920.828 c 1018.984 928.953 1015.211 936.172
 1014.625 936.867 c 1009.371 944.195 1006.488 954.594 1002.453 961.852 c
 1001.008 964.871 1000.043 968.293 998.703 970.852 c 996.891 974.285 995.762
 978.367 994.203 981.352 c 991.441 987.246 989.285 993.445 986.703 999.352
 c 985.82 1002.418 984.852 1003.434 982.953 1009.102 c 980.98 1015.117 978.504
 1022.473 976.953 1027.102 c 975.332 1032.133 975.066 1032.453 973.953 1036.102
 c 972.727 1040.906 969.547 1049.059 967.953 1054.102 c 965.332 1063.379
 963.09 1071.836 961.953 1077.352 c 960.598 1082.668 960.539 1084.355 958.953
 1089.352 c 957.355 1095.551 956.938 1096.77 955.953 1100.602 c 954.977 
1103.973 953.875 1108.336 952.953 1111.852 c 950.527 1124.176 950.309 1125.277
 946.953 1142.602 c 942.578 1163.348 941.711 1175.488 938.047 1193.789 c
 936.57 1206.57 936.109 1207.023 934.953 1216.852 c 934.453 1221.488 934.316
 1223.27 933.453 1228.102 c 932.945 1232.777 932.203 1235.73 931.953 1239.352
 c 931.621 1244.402 930.699 1249.02 930.453 1253.602 c 929.262 1269.125 
927.48 1279.879 927.453 1290.352 c 926.805 1300.086 925.969 1303.719 925.953
 1309.102 c 925.293 1319.121 924.461 1329.176 924.453 1336.852 c 923.055
 1382.035 920.961 1386.734 923.703 1436.602 c 923.973 1445.773 924.059 1447.035
 924.453 1454.602 c 924.648 1469.012 924.742 1466.023 925.953 1481.602 c
 927.473 1499.762 927.609 1501.699 928.953 1519.852 c 930.352 1536.219 930.859
 1538.715 931.953 1550.602 c 932.609 1556.07 932.844 1558.172 933.453 1562.602
 c 934.16 1568.352 934.41 1569.895 934.953 1573.852 c 935.617 1579.73 935.844
 1581.004 936.453 1585.102 c 936.883 1589.578 937.078 1590.211 937.953 1597.102
 c 939.168 1606.336 939.324 1607.184 940.953 1615.852 c 942.461 1623.949
 943.063 1626.824 943.953 1632.352 c 945.938 1643.043 946.355 1644.664 948.453
 1655.602 c 950.355 1664.457 950.871 1668.777 952.953 1677.352 c 954.582
 1685.051 955.031 1685.797 957.453 1694.602 c 958.906 1701.355 959.262 1702.227
 960.453 1706.602 c 963.816 1720.02 964.191 1720.871 966.453 1729.852 c 
970.262 1741.594 970.828 1742.738 972.453 1747.852 c 974.422 1754.484 974.648
 1755.5 976.203 1759.102 c 979.574 1769.199 979.594 1769.887 982.203 1777.102
 c 985.129 1784.992 986.273 1788.813 989.703 1796.602 c 995.621 1811.73 
996.473 1813.246 1001.703 1825.102 c 1007.715 1837.211 1007.469 1838.434
 1014.625 1851.586 c 1015.211 1852.281 1018.32 1858.172 1021.531 1864.672
 c 1024.742 1871.172 1027.66 1876.668 1028.012 1876.887 c 1028.367 1877.105
 1029.676 1879.422 1030.922 1882.031 c 1033.016 1884.996 1033.41 1886.848
 1036.953 1891.852 c 1042.289 1899.551 1040.184 1897.816 1045.953 1905.352
 c 1050.563 1912.781 1050.918 1912.074 1057.188 1922.535 c 1062.953 1930.875
 1063.152 1931.215 1068.453 1936.852 c 1071.586 1940.578 1072.004 1941.602
 1074.453 1944.352 c 1076.988 1947.547 1077.973 1949.168 1080.453 1951.852
 c 1082.27 1953.793 1083.211 1955.207 1083.453 1955.563 c 1089.641 1964.512
 1130.242 2002.379 1131.109 2003.227 c 1132.777 2004.848 1133.5 2005.328
 1134.828 2006.227 c 1138.195 2009.004 1139.465 2009.656 1142.328 2012.227
 c 1144.898 2014.535 1146.871 2015.938 1149.828 2018.227 c 1152.445 2020.535
 1153.012 2020.719 1157.328 2024.227 c 1163.27 2028.391 1163.77 2028.898
 1171.578 2033.977 c 1174.34 2035.723 1175.043 2036.262 1177.555 2037.727
 c 1180.797 2039.918 1181.5 2040.344 1184.328 2042.227 c 1186.164 2043.375
 1186.434 2043.5 1188.484 2044.887 c 1190.609 2046.277 1190.836 2046.48 
1192.578 2047.477 c 1196.242 2049.941 1196.965 2050.215 1200.398 2052.281
 c 1201.555 2053.676 1244.285 2075.063 1246.352 2075.227 c 1247.957 2075.934
 1248.379 2076.141 1249.977 2076.727 c 1251.559 2077.324 1252.281 2077.566
 1254.078 2078.227 c 1255.945 2078.918 1256.898 2079.328 1258.184 2079.727
 c 1260.074 2080.438 1260.418 2080.574 1261.977 2081.227 c 1264.324 2082.023
 1264.777 2082.199 1266.078 2082.727 c 1267.914 2083.418 1268.633 2083.531
 1270.184 2084.227 c 1273.598 2085.527 1274.676 2085.836 1278.078 2087.227
 c 1281.223 2088.313 1281.93 2088.586 1284.078 2089.477 c 1286.824 2090.48
 1287.27 2090.688 1290.078 2091.727 c 1291.914 2092.418 1292.754 2092.629
 1294.934 2093.227 c 1297.309 2093.949 1297.629 2094.09 1299.828 2094.727
 c 1302.102 2095.363 1302.883 2095.629 1305.078 2096.227 c 1307.77 2096.996
 1307.938 2097.059 1310.328 2097.727 c 1312.574 2098.457 1312.801 2098.516
 1315.578 2099.227 c 1318.234 2100.016 1318.52 2100.105 1320.828 2100.727
 c 1323.09 2101.344 1323.301 2101.449 1326.078 2102.227 c 1328.508 2102.84
 1328.98 2103.027 1332.078 2103.727 c 1333.559 2103.926 1334.625 2104.113
 1335.078 2104.477 c 1335.461 2104.777 1336.199 2105.227 1337 2105.227 c
 1338.43 2105.227 1338.453 2103.957 1338.453 2029.145 c 1338.453 1975.168
 1338.691 1952.918 1339.27 1952.563 c 1340.711 1952.5 1342.121 1953.238 
1343.438 1953.727 c 1348.563 1955.531 1345.691 1954.484 1353.078 1956.727
 c 1358.711 1958.438 1361.309 1959.094 1366.578 1960.477 c 1371.164 1961.676
 1372.348 1962.051 1380.078 1964.227 c 1387.477 1966.406 1384.656 1965.605
 1390.578 1967.227 c 1394.09 1968.078 1393.848 1967.91 1397.328 1968.727
 c 1402.16 1969.746 1403.031 1969.945 1405.48 1970.324 c 1409.629 1970.969
 1411.082 1971.215 1414.578 1971.727 c 1419.27 1972.523 1420.555 1972.762
 1422.828 1973.227 c 1425.871 1973.746 1427.512 1974.082 1431.078 1974.727
 c 1435.688 1975.508 1436.512 1975.777 1439.875 1976.258 c 1444.344 1977.152
 1445.465 1977.199 1448.504 1977.734 c 1452.078 1978.102 l 1452.461 2120.227
 l 1467.859 2120.344 1468.766 2120.438 1477.578 2120.977 c 1480.359 2121.547
 1518.742 2121.219 1521.828 2120.977 c 1527.352 2120.324 1528.063 2120.32
 1540.945 2120.227 c 1541.328 1979.602 l 1546.203 1979.375 l 1551.063 1979.504
 1561.574 1977.617 1572.828 1975.477 c 1581.707 1974.102 1583.516 1973.871
 1588.578 1973.227 c 1593.016 1972.621 1595.012 1972.172 1597.578 1971.727
 c 1600.117 1971.336 1602.965 1970.563 1605.078 1970.227 c 1609.434 1969.508
 1613.711 1968.191 1617.828 1967.227 c 1622.383 1966.164 1626.938 1965.215
 1631.328 1964.227 c 1633.367 1963.844 1635.766 1963.145 1637.328 1962.727
 c 1640.668 1961.895 1641.609 1961.598 1643.328 1961.227 c 1645.75 1960.563
 1646.781 1960.199 1648.258 1959.727 c 1649.145 1959.445 1650.316 1959.168
 1651.164 1958.84 c 1652.043 1958.629 1653.055 1958.199 1653.727 1958.461
 c 1654.848 1958.891 1654.953 1965 1654.953 2030.578 c 1654.953 2102.227
 l 1657.156 2102.227 l 1659.32 2102.105 1660.703 2101.406 1662.828 2100.727
 c 1669.035 2098.746 1671.781 2097.828 1677.078 2096.227 c 1682.855 2094.352
 1684.09 2094.043 1691.328 2091.727 c 1701.293 2088.227 1702.438 2087.629
 1711.578 2084.227 c 1723.559 2079.902 1728 2077.918 1737.828 2073.727 c
 1749.395 2068.961 1760.035 2062.547 1769.852 2057.668 c 1784.426 2049.988
 1784.879 2049.664 1796.328 2042.977 c 1801.891 2039.621 1807.32 2036.094
 1812.828 2032.477 c 1825.965 2024.375 1838.992 2014.516 1850.328 2005.477
 c 1855.609 2001.66 1860.84 1997.32 1864.578 1994.227 c 1869.551 1990.188
 1874.383 1985.918 1878.078 1982.227 c 1883.016 1977.277 1884.199 1976.629
 1887.824 1973.227 c 1899.621 1962.148 1900.402 1961.16 1915.953 1945.082
 c 1918.293 1942.66 1919.465 1941.355 1924.203 1936.102 c 1931.328 1928.781
 1931.703 1928.215 1937.703 1921.102 c 1941.195 1917.176 1942.027 1916.391
 1945.203 1912.102 c 1947.227 1909.293 1947.813 1908.691 1950.453 1905.352
 c 1953.184 1901.758 1953.539 1901.266 1956.453 1897.852 c 1959.516 1894.191
 1959.867 1893.5 1962.453 1890.352 c 1965.031 1887.242 1965.859 1886.063
 1967.422 1883.879 c 1968.836 1882.215 1969.77 1881.074 1970.234 1880.16
 c 1972.75 1875.203 1975.836 1876.645 1987.191 1888.063 c 2140.363 2031.691
 2142.871 2033.258 2295.078 2171.227 c 2301.574 2177.391 2311.953 2187.266
 2311.953 2188.559 c 2311.953 2189.211 2311.309 2190.09 2310.453 2191.102
 c 2308.504 2193.871 2306.813 2195.953 2304.453 2198.602 c 2300.484 2202.984
 2296.672 2207.887 2293.203 2211.352 c 2287.629 2217.188 2282.16 2223.891
 2277.453 2228.602 c 2272.504 2233.539 2272.57 2234.066 2268.453 2238.344
 c 2261.832 2245.223 2221.398 2285.547 2218.563 2288.227 c 2213.746 2292.781
 2213.543 2292.898 2205.828 2300.227 c 2195.531 2309.621 2195.277 2309.715
 2187.828 2316.727 c 2181.965 2321.844 2181.402 2322.266 2177.328 2325.727
 c 2171.695 2330.742 2171.336 2331.035 2166.828 2334.727 c 2161.262 2339.809
 2160.902 2340 2156.328 2343.727 c 2153.879 2346.203 2151.512 2348.227 2151.066
 2348.227 c 2150.621 2348.227 2148.938 2349.578 2147.328 2351.227 c 2144.332
 2353.656 2143.414 2354.414 2140.578 2356.477 c 2133.523 2361.984 2132.871
 2362.504 2127.078 2366.977 c 2122.047 2370.992 2120 2372.605 2113.578 2377.477
 c 2105.457 2383.84 2105.363 2383.816 2100.828 2387.227 c 2093.848 2392.113
 2093.641 2392.23 2085.828 2397.727 c 2081.426 2400.891 2081.285 2401.066
 2077.555 2403.727 c 2065.688 2412.176 2065.324 2412.387 2051.672 2421.387
 c 2042.25 2427.609 2042.004 2427.832 2032.555 2433.727 c 2024.902 2438.66
 2024.684 2438.875 2020.602 2441.227 c 2014.582 2445.305 2014.352 2445.449
 2006.344 2450.199 c 1999.672 2454.063 1998.145 2455.023 1992.078 2458.477
 c 1983.316 2463.621 1983.195 2463.805 1975.578 2468.227 c 1968.219 2472.336
 1967.578 2472.836 1963.578 2474.977 c 1956.586 2478.902 1956.098 2479.23
 1952.125 2481.434 c 1944.754 2485.309 1944.578 2485.484 1937.367 2489.227
 c 1935.98 2489.855 1925.754 2494.625 1912.578 2501.227 c 1887.23 2512.719
 1886.645 2513 1869.078 2520.727 c 1853.895 2526.688 1853.543 2526.805 1839.078
 2532.727 c 1833.152 2535.043 1832.633 2535.121 1827.078 2537.227 c 1812.563
 2542.16 1812.227 2542.211 1803.078 2545.477 c 1795.918 2547.844 1795.125
 2548.012 1791.078 2549.227 c 1782.43 2551.836 1782.188 2551.82 1768.578
 2555.977 c 1749.895 2561.727 1749.578 2561.781 1723.578 2567.977 c 1704.625
 2572.609 1704.313 2572.645 1685.328 2576.227 c 1674.117 2578.375 1662.488
 2580.727 1661.434 2580.727 c 1658.527 2580.992 1656.359 2581.117 1655.852
 2581.625 c 1655.164 2582.316 1654.953 2603.41 1654.953 2672 c 1654.953 
2761.477 l 1540.953 2761.477 l 1540.953 2594.227 l 1530.309 2594.32 l 1502.902
 2595.871 1486.813 2596.047 1460.66 2594.227 c 1452.453 2594.227 l 1452.453
 2761.477 l 1338.453 2761.477 l h
1465.578 1950.727 m 1459.766 1950.445 1455.078 1949.574 1450.578 1949.227
 c 1446.535 1948.699 1443.918 1948.211 1440.074 1947.727 c 1435.871 1947.094
 1432.414 1946.617 1428.828 1946.227 c 1418.98 1944.723 1417.645 1944.559
 1407.824 1942.477 c 1402.242 1940.961 1401.5 1940.902 1398.078 1940.227
 c 1394.805 1939.621 1394.078 1939.449 1391.328 1938.727 c 1387.098 1937.672
 1383.852 1936.785 1379.328 1935.727 c 1375.281 1934.883 1372.043 1933.723
 1368.074 1932.727 c 1348.199 1925.934 1342.723 1923.813 1328.328 1918.477
 c 1325.691 1917.332 1324.621 1916.855 1323.133 1916.227 c 1321.23 1915.422
 1318.215 1914.203 1313.324 1911.727 c 1301.5 1906.652 1288.422 1899.625
 1279.777 1894.934 c 1272.605 1891.367 1269.316 1889.301 1260.828 1883.977
 c 1249.836 1877.207 1238.035 1869.695 1228.574 1862.227 c 1222.164 1857.777
 1217 1854.344 1211.328 1849.477 c 1205.23 1844.191 1198.691 1839.762 1193.328
 1834.477 c 1189.137 1830.797 1184.586 1827.238 1181.328 1823.977 c 1171.547
 1815.883 1163.004 1805.762 1154.703 1797.352 c 1150.164 1792.969 1146.555
 1788.016 1142.699 1783.852 c 1138.102 1777.898 1133.371 1771.457 1129.199
 1765.852 c 1126.008 1761.875 1123.438 1757.371 1120.199 1753.852 c 1116.707
 1749.082 1112.758 1743.637 1110.418 1738.781 c 1109.172 1736.172 1107.844
 1733.844 1107.469 1733.613 c 1107.09 1733.379 1105.395 1730.336 1103.703
 1726.852 c 1102.008 1723.367 1100.324 1720.332 1099.957 1720.105 c 1092.516
 1705.086 1086.488 1692.41 1080.453 1680.352 c 1079.004 1677.332 1078.039
 1673.91 1076.703 1671.352 c 1072.367 1661.023 1068.66 1652.746 1065.453
 1642.102 c 1064.461 1638.828 1063.27 1635.395 1062.453 1632.352 c 1061.98
 1630.359 1061.406 1628.934 1060.953 1627.102 c 1060.309 1625.301 1059.938
 1624.266 1059.453 1622.602 c 1058.426 1619.145 1057.477 1615.531 1056.453
 1612.102 c 1054.742 1605.172 1051.691 1598.492 1050.453 1591.102 c 1046.863
 1573.59 1043.414 1554.863 1039.953 1538.602 c 1038.602 1526.969 1035.633
 1515.059 1035.453 1504.102 c 1035.59 1499.578 1033.969 1495.191 1033.953
 1491.352 c 1033.836 1486.824 1032.465 1482.441 1032.453 1478.602 c 1031.973
 1472.461 1030.961 1466.309 1030.953 1461.352 c 1027.711 1425.602 1028.582
 1390.824 1029.453 1351.102 c 1029.719 1337.016 1031.457 1323.047 1032.453
 1309.852 c 1035.781 1285.773 1036.902 1261.395 1041.453 1240.852 c 1042.68
 1233.539 1044.434 1226.781 1045.203 1222.102 c 1046.484 1215.984 1047.504
 1210.684 1048.199 1207.102 c 1049.594 1198.059 1052.777 1187.762 1054.953
 1179.352 c 1056.059 1175.098 1056.965 1172.84 1059.453 1164.352 c 1060.5
 1160.078 1061.5 1158.289 1062.453 1153.852 c 1063.949 1148.875 1065.484
 1143.574 1066.953 1138.852 c 1068.164 1135.566 1069.262 1131.938 1070.699
 1129.102 c 1072.258 1125.703 1073.246 1122.785 1074.453 1120.102 c 1078.203
 1109.941 1083.02 1100.152 1086.453 1090.984 c 1089.746 1083.176 1094.672
 1075.391 1098.008 1068.543 c 1100.609 1063.508 1103.867 1058.328 1105.953
 1054.102 c 1107.863 1049.828 1110.723 1045.762 1112.668 1042.18 c 1114.473
 1039.066 1116.531 1035.629 1118.703 1033.102 c 1120.422 1030.852 1121.898
 1028.797 1123.203 1027.102 c 1132.469 1015.441 1133.391 1013.051 1144.203
 998.602 c 1148.523 993.871 1152.52 988.781 1156.199 985.102 c 1164.227 
975.664 1173 968.156 1182.078 959.227 c 1196.227 946.629 1196.188 947.168
 1212.078 933.727 c 1214.699 931.73 1216.191 930.777 1218.078 929.227 c 
1220.133 927.836 1221.586 926.762 1223.324 925.477 c 1236.293 916.133 1247.754
 907.832 1260.828 899.977 c 1264.246 898.016 1265.645 897.211 1269.828 894.727
 c 1275.914 891.008 1279.297 889.098 1285.344 885.898 c 1293.215 881.281
 1301.656 877.695 1308.824 874.477 c 1313.699 871.855 1319.578 869.902 1323.828
 867.727 c 1343.508 859.828 1367.648 852.07 1382.328 848.227 c 1400.289 
844.145 1419.66 839.305 1436.328 837.727 c 1441.992 836.906 1444.691 836.242
 1448.324 836.227 c 1453.934 835.715 1459.5 834.738 1464.078 834.727 c 1478.406
 833.609 1491.98 833.234 1502.703 833.227 c 1520.484 833.098 1525.836 833.668
 1540.578 834.727 c 1560.891 836.578 1560.922 836.086 1576.578 838.477 c
 1594.77 841.488 1591.441 841.188 1605.078 843.727 c 1620.172 847.113 1621.063
 847.266 1637.324 851.227 c 1652.852 855.57 1658.422 857.262 1665.074 859.477
 c 1669.363 860.676 1670.191 861.109 1674.074 862.477 c 1684.012 866.465
 1690.707 868.703 1699.578 872.977 c 1713.629 879.484 1714.566 879.656 1729.063
 887.402 c 1738.285 892.645 1738.715 892.844 1755.48 903.387 c 1764.504 
909.137 1773.473 915.484 1779.828 920.227 c 1791.211 928.934 1792.832 929.762
 1803.824 938.227 c 1811.938 945.406 1821.004 952.551 1827.828 959.227 c
 1847.063 976.586 1852.871 983.32 1866.453 997.137 c 1867.008 997.703 1868.105
 999.223 1870.203 1001.602 c 1872.73 1004.359 1873.953 1005.906 1873.953
 1007.199 c 1873.953 1008.727 1859.109 1023.945 1799.137 1083.914 c 1757.988
 1125.063 1723.809 1158.727 1723.18 1158.727 c 1721.938 1158.727 1712.844
 1148.938 1711.953 1147.824 c 1711.332 1147.055 1681.57 1117.332 1680.785
 1116.727 c 1680.145 1116.234 1679.016 1115.281 1677.078 1113.727 c 1675.141
 1111.426 1672.133 1110.34 1670.328 1108.477 c 1668.5 1106.563 1665.934 
1105.633 1664.324 1103.977 c 1660.504 1100.516 1656.945 1098.953 1654.922
 1097.563 c 1648.309 1092.805 1643.344 1090.605 1639.813 1088.402 c 1625.047
 1080.367 1609.473 1073.074 1594.578 1068.727 c 1590.977 1067.555 1589.898
 1067.211 1584.828 1065.727 c 1578.359 1063.809 1572.559 1062.605 1566.074
 1061.227 c 1562.328 1060.387 1561.387 1060.164 1558.578 1059.727 c 1555.379
 1059.051 1553.418 1058.828 1550.328 1058.227 c 1546.121 1057.52 1541.875
 1057.133 1538.324 1056.727 c 1532.031 1055.977 1539.543 1056.836 1530.828
 1055.977 c 1521.898 1055.164 1490.676 1055.727 1482.078 1055.977 c 1479.383
 1056.344 1481.512 1056 1476.074 1056.727 c 1467.625 1057.59 1458.039 1058.914
 1452.824 1059.727 c 1449.594 1060.309 1449.871 1060.25 1445.328 1061.227
 c 1438.902 1062.441 1432.691 1063.73 1428.078 1064.977 c 1421.621 1066.707
 1418.867 1067.414 1415.328 1068.727 c 1412.359 1069.77 1409.676 1070.73
 1407.078 1071.727 c 1404.43 1072.672 1403.762 1072.926 1399.348 1074.727
 c 1395.438 1076.332 1375.941 1086.316 1366.602 1091.227 c 1360.945 1094.906
 1354.43 1099.023 1350.074 1102.477 c 1347.172 1104.832 1344.566 1106.848
 1341.828 1109.227 c 1339.238 1111.469 1341.004 1109.977 1336.582 1113.727
 c 1329.793 1119.336 1322.629 1127.297 1318.203 1132.852 c 1312.363 1138.805
 1307.25 1146.398 1303.203 1152.352 c 1299.402 1157.313 1295.629 1162.988
 1292.98 1168.352 c 1291.445 1171.516 1291.117 1171.953 1289.121 1175.367
 c 1283.051 1185.457 1279.992 1194.23 1274.703 1206.352 c 1272.492 1211.262
 1270.742 1217.133 1269.453 1220.602 c 1267.637 1226.902 1265.813 1231.82
 1263.453 1238.602 c 1262.102 1243.715 1261.188 1246.863 1260.453 1249.852
 c 1258.422 1259.027 1255.973 1267.785 1254.453 1275.352 c 1253.492 1281.684
 1252.156 1287.688 1251.453 1293.352 c 1250.328 1299.121 1248.559 1306.543
 1248.453 1312.852 c 1248.063 1322.949 1245.566 1333.367 1245.453 1342.852
 c 1244.715 1350.965 1243.953 1358.875 1243.953 1365.352 c 1242.98 1379.629
 1242.859 1380.547 1242.453 1394.227 c 1243.008 1414.527 1243.988 1426.766
 1245.453 1446.352 c 1246.875 1458.625 1246.328 1452.52 1246.953 1462.102
 c 1248.316 1479.941 1251.621 1496.316 1254.453 1513.102 c 1255.695 1517.918
 1256.523 1521.402 1257.453 1525.102 c 1257.934 1527.676 1258.688 1529.957
 1258.953 1531.852 c 1259.469 1534.469 1260.109 1536.625 1260.566 1538.625
 c 1261.918 1542.758 1263.055 1546.945 1264.176 1550.602 c 1265.402 1555.734
 1266.98 1560.637 1268.703 1565.602 c 1270.059 1568.957 1270.977 1572.883
 1272.453 1576.102 c 1273.797 1579.156 1275.047 1582.48 1276.203 1585.102
 c 1277.367 1587.641 1278.266 1589.813 1278.453 1590.262 c 1278.922 1591.402
 1289.223 1612.93 1290.625 1614.59 c 1291.211 1615.281 1292.934 1618.41 
1294.449 1621.535 c 1295.961 1624.66 1298.117 1627.773 1299.078 1628.977
 c 1300.402 1630.891 1301.285 1632.453 1302.453 1633.852 c 1303.809 1635.66
 1304.992 1637.582 1306.203 1639.102 c 1307.734 1641.16 1308.637 1642.793
 1309.953 1644.352 c 1314.098 1650.008 1319.699 1655.859 1323.453 1660.102
 c 1328.52 1666.664 1336.07 1671.926 1341.074 1676.977 c 1343.344 1678.992
 1343.309 1679.156 1345.582 1680.727 c 1348.961 1683.457 1352.156 1686.074
 1355.328 1688.227 c 1356.703 1689.34 1358.141 1689.992 1359.48 1690.887
 c 1360.457 1691.527 1361.832 1692.48 1363.574 1693.477 c 1365.297 1694.402
 1366.766 1695.426 1367.672 1696.063 c 1369.492 1697.262 1369.648 1697.344
 1371.422 1698.316 c 1378.711 1702.715 1382.684 1704.207 1383.898 1704.727
 c 1393.621 1709.344 1404.391 1713.688 1413.828 1716.727 c 1415.766 1717.305
 1416.398 1717.574 1418.328 1718.227 c 1420.219 1719.016 1420.477 1719.051
 1422.828 1719.727 c 1424.805 1720.316 1425.109 1720.344 1428.078 1721.227
 c 1430.832 1721.871 1432.398 1722.125 1434.824 1722.727 c 1439.68 1723.695
 1442.078 1724.27 1446.078 1724.977 c 1450.656 1725.922 1450.352 1726.039
 1458.828 1727.227 c 1464.199 1727.715 1464.074 1727.762 1472.328 1728.727
 c 1486 1730.203 1498.387 1730.219 1508.703 1730.227 c 1520.27 1730.41 1534.094
 1730.074 1544.328 1728.727 c 1545.156 1728.609 1550.441 1728.02 1554.828
 1727.227 c 1558.395 1726.777 1561.574 1726.141 1563.828 1725.727 c 1568.98
 1724.98 1569.734 1724.652 1572.078 1724.227 c 1576.816 1723.359 1581.113
 1722.148 1584.074 1721.227 c 1589.387 1719.762 1592.816 1718.719 1596.824
 1717.477 c 1601.75 1715.973 1604.266 1715.074 1607.328 1713.727 c 1613.199
 1711.387 1616.352 1710.094 1621.492 1707.727 c 1623.457 1706.953 1635.242
 1701.367 1639.813 1698.555 c 1647.156 1694.348 1652.66 1691.336 1658.645
 1687.164 c 1663.531 1683.367 1668.984 1679.609 1673.324 1676.227 c 1687.211
 1665.59 1699.57 1652 1711.953 1639.063 c 1714.547 1635.859 1716.895 1633.539
 1719.383 1629.891 c 1720.227 1628.797 1720.781 1628.227 1722.246 1628.227
 c 1724.008 1628.227 1735.816 1639.715 1799.141 1703.039 c 1821.492 1725.809
 1844.484 1747.957 1866.5 1771.055 c 1876.398 1780.578 1875.723 1777.453
 1870.953 1783.789 c 1860.594 1796.414 1845.891 1808.109 1835.324 1818.727
 c 1831.98 1822.117 1827.676 1824.863 1824.828 1827.727 c 1821.48 1831.117
 1817.176 1833.863 1814.328 1836.727 c 1811.531 1839.586 1807.934 1842.043
 1805.328 1844.227 c 1803.18 1846.336 1800.875 1847.773 1798.578 1849.477
 c 1796.012 1851.367 1792.984 1853.262 1791.102 1854.727 c 1787.984 1857.324
 1787.867 1857.297 1785.051 1859.227 c 1779.309 1863.246 1772.883 1867.551
 1767.395 1871.664 c 1764.348 1873.965 1761.402 1875.574 1758.48 1877.563
 c 1755.84 1879.406 1753.25 1881.004 1750.5 1882.512 c 1747.559 1884.359
 1745.438 1885.891 1743.078 1886.977 c 1737.133 1890.199 1731.426 1894.313
 1725.633 1897.168 c 1718.086 1900.766 1711.262 1906.039 1703.293 1908.727
 c 1702.844 1908.859 1699.129 1910.414 1695.078 1912.477 c 1685.664 1916.434
 1676.684 1921.398 1667.328 1923.727 c 1665.223 1924.566 1664.688 1924.68
 1662.828 1925.227 c 1660.746 1925.871 1660.16 1926.027 1658.328 1926.727
 c 1656.598 1927.258 1655.684 1927.621 1653.828 1928.227 c 1626.02 1936.105
 1597.68 1944 1572.078 1947.727 c 1567.547 1948.336 1563.418 1948.793 1559.328
 1949.227 c 1553.496 1949.703 1548.023 1950.242 1542.824 1950.727 c 1538.281
 1951.172 1542.824 1950.727 1534.574 1951.477 c 1530.719 1951.98 1523.316
 1952.359 1504.953 1952.227 c 1492.191 1952.621 1470.5 1951.113 1465.578
 1950.727 c h
1541.297 1700.789 m 1541.102 1700.273 1541.027 1561.645 1541.133 1392.727
 c 1541.328 1085.602 l 1544.992 1085.367 l 1551.453 1086.016 1552.828 1086.113
 1560.762 1087.629 c 1568.934 1089.656 1569.688 1089.586 1578.828 1092.262
 c 1593.656 1096.699 1591.082 1096.246 1600.805 1100.227 c 1602.441 1100.227
 1630.148 1114.047 1634.754 1117.164 c 1637.098 1118.629 1639.039 1119.375
 1643.461 1122.66 c 1647.441 1125.418 1650.098 1126.719 1652.848 1129.242
 c 1654.953 1131.258 l 1654.953 1655.672 l 1652.109 1658.449 l 1648.828 
1660.793 1648.645 1661.148 1642.578 1664.977 c 1637.66 1668.324 1636.813
 1668.422 1634.754 1669.785 c 1619.281 1679.715 1608.957 1682.855 1594.578
 1688.977 c 1580.941 1693.344 1578.828 1694.008 1565.328 1697.227 c 1559.684
 1698.273 1553.82 1699.523 1548.828 1700.227 c 1543.57 1701.184 1541.93 
1702.348 1541.297 1700.789 c h
1442.348 1696.512 m 1433.816 1694.137 1425.199 1691.695 1416.824 1688.977
 c 1410.723 1686.75 1409.855 1686.41 1401.164 1682.227 c 1391.145 1677.551
 1390.195 1677.18 1380.852 1671.727 c 1375.703 1668.238 1369.57 1664.695
 1365.078 1661.227 c 1360.297 1657.551 1357.438 1655.086 1354.574 1652.227
 c 1350.465 1648.102 1346.777 1644.727 1346.383 1644.727 c 1343.227 1641.488
 1342.895 1640.973 1339.953 1637.602 c 1338.457 1636.25 1338.453 1635.293
 1338.453 1393.59 c 1338.453 1150.934 l 1340.422 1148.879 l 1347.113 1142.105
 1347.559 1141.664 1354.887 1134.414 c 1359.922 1129.824 1360.094 1129.699
 1365.078 1125.727 c 1368.254 1123.41 1371.621 1121.281 1374.828 1118.977
 c 1378.043 1116.59 1378.168 1116.496 1384.172 1112.637 c 1391.691 1108.516
 1391.879 1108.414 1401.828 1103.977 c 1406.668 1101.613 1406.816 1101.543
 1413.828 1098.727 c 1418.73 1096.926 1419.227 1096.648 1426.574 1094.227
 c 1428.93 1093.496 1429.188 1093.422 1431.828 1092.727 c 1435.957 1091.539
 1437.078 1091.227 1437.078 1091.227 c 1443.805 1089.348 1448.879 1087.969
 1449.922 1088.355 c 1452.078 1088.602 l 1452.078 1696.852 l 1447.453 1697.074
 l 1445.781 1697.074 1444.59 1696.973 1442.348 1696.512 c h
1442.348 1696.512 m f
Q Q
showpage
%%Trailer
end
%%EOF
